figures/Python/1MHz 24V 0A 0.25 DB1-1/SDS1204X_HD_CSV_C4_4.csv

Record Length,Analog:2500
Sample Interval,2.000000E-09
Vertical Units,V,
Vertical Scale,+5.000000E-01
Vertical Offset,-1.658333E+00
Horizontal Units,s
Horizontal Scale,+5.000000E-07
Model,SDS1204X HD
Serial Number,SDSEV82X900772
Software Version,6.9.13.1.1.6.7
Source,CH4
Second,Value
-2.5000000000E-06,+4.385417E-01
-2.4980000000E-06,+4.458334E-01
-2.4960000000E-06,+4.270834E-01
-2.4940000000E-06,+4.375000E-01
-2.4920000000E-06,+4.239584E-01
-2.4900000000E-06,+4.239584E-01
-2.4880000000E-06,+4.229167E-01
-2.4860000000E-06,+4.239584E-01
-2.4840000000E-06,+4.187500E-01
-2.4820000000E-06,+4.156250E-01
-2.4800000000E-06,+4.229167E-01
-2.4780000000E-06,+4.270834E-01
-2.4760000000E-06,+4.260417E-01
-2.4740000000E-06,+4.270834E-01
-2.4720000000E-06,+4.406250E-01
-2.4700000000E-06,+4.385417E-01
-2.4680000000E-06,+4.520833E-01
-2.4660000000E-06,+4.541667E-01
-2.4640000000E-06,+4.666667E-01
-2.4620000000E-06,+4.708334E-01
-2.4600000000E-06,+4.864584E-01
-2.4580000000E-06,+4.927084E-01
-2.4560000000E-06,+5.072917E-01
-2.4540000000E-06,+5.156250E-01
-2.4520000000E-06,+5.260417E-01
-2.4500000000E-06,+5.427084E-01
-2.4480000000E-06,+5.593750E-01
-2.4460000000E-06,+5.739584E-01
-2.4440000000E-06,+5.833334E-01
-2.4420000000E-06,+5.968750E-01
-2.4400000000E-06,+6.156250E-01
-2.4380000000E-06,+6.291667E-01
-2.4360000000E-06,+6.458334E-01
-2.4340000000E-06,+6.656250E-01
-2.4320000000E-06,+6.812500E-01
-2.4300000000E-06,+6.989583E-01
-2.4280000000E-06,+7.135417E-01
-2.4260000000E-06,+7.333333E-01
-2.4240000000E-06,+7.489583E-01
-2.4220000000E-06,+7.697917E-01
-2.4200000000E-06,+7.895834E-01
-2.4180000000E-06,+8.083334E-01
-2.4160000000E-06,+8.260417E-01
-2.4140000000E-06,+8.458334E-01
-2.4120000000E-06,+8.677084E-01
-2.4100000000E-06,+8.875000E-01
-2.4080000000E-06,+9.062500E-01
-2.4060000000E-06,+9.250000E-01
-2.4040000000E-06,+9.479167E-01
-2.4020000000E-06,+9.666667E-01
-2.4000000000E-06,+9.854167E-01
-2.3980000000E-06,+1.005208E+00
-2.3960000000E-06,+1.026042E+00
-2.3940000000E-06,+1.050000E+00
-2.3920000000E-06,+1.068750E+00
-2.3900000000E-06,+1.089583E+00
-2.3880000000E-06,+1.113542E+00
-2.3860000000E-06,+1.135417E+00
-2.3840000000E-06,+1.155208E+00
-2.3820000000E-06,+1.173958E+00
-2.3800000000E-06,+1.196875E+00
-2.3780000000E-06,+1.214583E+00
-2.3760000000E-06,+1.240625E+00
-2.3740000000E-06,+1.262500E+00
-2.3720000000E-06,+1.284375E+00
-2.3700000000E-06,+1.306250E+00
-2.3680000000E-06,+1.328125E+00
-2.3660000000E-06,+1.351042E+00
-2.3640000000E-06,+1.372917E+00
-2.3620000000E-06,+1.390625E+00
-2.3600000000E-06,+1.415625E+00
-2.3580000000E-06,+1.437500E+00
-2.3560000000E-06,+1.456250E+00
-2.3540000000E-06,+1.481250E+00
-2.3520000000E-06,+1.498958E+00
-2.3500000000E-06,+1.523958E+00
-2.3480000000E-06,+1.546875E+00
-2.3460000000E-06,+1.569792E+00
-2.3440000000E-06,+1.591667E+00
-2.3420000000E-06,+1.609375E+00
-2.3400000000E-06,+1.633333E+00
-2.3380000000E-06,+1.655208E+00
-2.3360000000E-06,+1.675000E+00
-2.3340000000E-06,+1.695833E+00
-2.3320000000E-06,+1.714583E+00
-2.3300000000E-06,+1.735417E+00
-2.3280000000E-06,+1.755208E+00
-2.3260000000E-06,+1.778125E+00
-2.3240000000E-06,+1.798958E+00
-2.3220000000E-06,+1.819792E+00
-2.3200000000E-06,+1.838542E+00
-2.3180000000E-06,+1.856250E+00
-2.3160000000E-06,+1.880208E+00
-2.3140000000E-06,+1.902083E+00
-2.3120000000E-06,+1.919792E+00
-2.3100000000E-06,+1.939583E+00
-2.3080000000E-06,+1.961458E+00
-2.3060000000E-06,+1.980208E+00
-2.3040000000E-06,+2.000000E+00
-2.3020000000E-06,+2.018750E+00
-2.3000000000E-06,+2.040625E+00
-2.2980000000E-06,+2.062500E+00
-2.2960000000E-06,+2.080208E+00
-2.2940000000E-06,+2.106250E+00
-2.2920000000E-06,+2.116667E+00
-2.2900000000E-06,+2.140625E+00
-2.2880000000E-06,+2.160417E+00
-2.2860000000E-06,+2.185417E+00
-2.2840000000E-06,+2.184375E+00
-2.2820000000E-06,+2.270833E+00
-2.2800000000E-06,+2.285417E+00
-2.2780000000E-06,+2.172917E+00
-2.2760000000E-06,+2.300000E+00
-2.2740000000E-06,+2.346875E+00
-2.2720000000E-06,+2.316667E+00
-2.2700000000E-06,+2.341667E+00
-2.2680000000E-06,+2.360417E+00
-2.2660000000E-06,+2.388542E+00
-2.2640000000E-06,+2.400000E+00
-2.2620000000E-06,+2.435417E+00
-2.2600000000E-06,+2.446875E+00
-2.2580000000E-06,+2.460417E+00
-2.2560000000E-06,+2.473958E+00
-2.2540000000E-06,+2.502084E+00
-2.2520000000E-06,+2.534375E+00
-2.2500000000E-06,+2.544792E+00
-2.2480000000E-06,+2.555208E+00
-2.2460000000E-06,+2.570833E+00
-2.2440000000E-06,+2.597917E+00
-2.2420000000E-06,+2.614583E+00
-2.2400000000E-06,+2.630208E+00
-2.2380000000E-06,+2.651042E+00
-2.2360000000E-06,+2.667708E+00
-2.2340000000E-06,+2.679167E+00
-2.2320000000E-06,+2.693750E+00
-2.2300000000E-06,+2.710417E+00
-2.2280000000E-06,+2.729167E+00
-2.2260000000E-06,+2.742708E+00
-2.2240000000E-06,+2.753125E+00
-2.2220000000E-06,+2.765625E+00
-2.2200000000E-06,+2.786458E+00
-2.2180000000E-06,+2.796875E+00
-2.2160000000E-06,+2.805209E+00
-2.2140000000E-06,+2.821875E+00
-2.2120000000E-06,+2.829167E+00
-2.2100000000E-06,+2.835417E+00
-2.2080000000E-06,+2.844792E+00
-2.2060000000E-06,+2.856250E+00
-2.2040000000E-06,+2.864583E+00
-2.2020000000E-06,+2.869792E+00
-2.2000000000E-06,+2.872917E+00
-2.1980000000E-06,+2.873958E+00
-2.1960000000E-06,+2.880208E+00
-2.1940000000E-06,+2.880208E+00
-2.1920000000E-06,+2.880208E+00
-2.1900000000E-06,+2.879167E+00
-2.1880000000E-06,+2.876042E+00
-2.1860000000E-06,+2.875000E+00
-2.1840000000E-06,+2.868750E+00
-2.1820000000E-06,+2.861458E+00
-2.1800000000E-06,+2.858333E+00
-2.1780000000E-06,+2.848958E+00
-2.1760000000E-06,+2.842709E+00
-2.1740000000E-06,+2.836458E+00
-2.1720000000E-06,+2.825000E+00
-2.1700000000E-06,+2.815625E+00
-2.1680000000E-06,+2.808333E+00
-2.1660000000E-06,+2.795833E+00
-2.1640000000E-06,+2.783333E+00
-2.1620000000E-06,+2.772917E+00
-2.1600000000E-06,+2.763542E+00
-2.1580000000E-06,+2.755208E+00
-2.1560000000E-06,+2.739583E+00
-2.1540000000E-06,+2.727084E+00
-2.1520000000E-06,+2.717708E+00
-2.1500000000E-06,+2.701042E+00
-2.1480000000E-06,+2.685417E+00
-2.1460000000E-06,+2.678125E+00
-2.1440000000E-06,+2.663542E+00
-2.1420000000E-06,+2.652083E+00
-2.1400000000E-06,+2.641667E+00
-2.1380000000E-06,+2.627083E+00
-2.1360000000E-06,+2.613542E+00
-2.1340000000E-06,+2.602083E+00
-2.1320000000E-06,+2.588542E+00
-2.1300000000E-06,+2.577083E+00
-2.1280000000E-06,+2.565625E+00
-2.1260000000E-06,+2.553125E+00
-2.1240000000E-06,+2.540625E+00
-2.1220000000E-06,+2.528125E+00
-2.1200000000E-06,+2.515625E+00
-2.1180000000E-06,+2.504167E+00
-2.1160000000E-06,+2.492708E+00
-2.1140000000E-06,+2.480208E+00
-2.1120000000E-06,+2.471875E+00
-2.1100000000E-06,+2.458333E+00
-2.1080000000E-06,+2.444792E+00
-2.1060000000E-06,+2.431250E+00
-2.1040000000E-06,+2.426042E+00
-2.1020000000E-06,+2.413542E+00
-2.1000000000E-06,+2.398958E+00
-2.0980000000E-06,+2.391667E+00
-2.0960000000E-06,+2.379167E+00
-2.0940000000E-06,+2.367708E+00
-2.0920000000E-06,+2.358334E+00
-2.0900000000E-06,+2.346875E+00
-2.0880000000E-06,+2.336458E+00
-2.0860000000E-06,+2.327083E+00
-2.0840000000E-06,+2.318750E+00
-2.0820000000E-06,+2.307292E+00
-2.0800000000E-06,+2.297917E+00
-2.0780000000E-06,+2.285417E+00
-2.0760000000E-06,+2.273958E+00
-2.0740000000E-06,+2.266667E+00
-2.0720000000E-06,+2.256250E+00
-2.0700000000E-06,+2.244792E+00
-2.0680000000E-06,+2.235417E+00
-2.0660000000E-06,+2.227083E+00
-2.0640000000E-06,+2.215625E+00
-2.0620000000E-06,+2.205208E+00
-2.0600000000E-06,+2.200000E+00
-2.0580000000E-06,+2.189583E+00
-2.0560000000E-06,+2.179167E+00
-2.0540000000E-06,+2.169792E+00
-2.0520000000E-06,+2.157292E+00
-2.0500000000E-06,+2.145833E+00
-2.0480000000E-06,+2.143750E+00
-2.0460000000E-06,+2.134375E+00
-2.0440000000E-06,+2.117708E+00
-2.0420000000E-06,+2.104167E+00
-2.0400000000E-06,+2.077083E+00
-2.0380000000E-06,+2.093750E+00
-2.0360000000E-06,+2.185417E+00
-2.0340000000E-06,+1.973958E+00
-2.0320000000E-06,+2.073958E+00
-2.0300000000E-06,+2.053125E+00
-2.0280000000E-06,+2.042708E+00
-2.0260000000E-06,+2.051042E+00
-2.0240000000E-06,+2.012500E+00
-2.0220000000E-06,+2.037500E+00
-2.0200000000E-06,+1.964583E+00
-2.0180000000E-06,+2.036458E+00
-2.0160000000E-06,+1.938542E+00
-2.0140000000E-06,+2.011458E+00
-2.0120000000E-06,+1.925000E+00
-2.0100000000E-06,+1.976042E+00
-2.0080000000E-06,+1.930208E+00
-2.0060000000E-06,+1.946875E+00
-2.0040000000E-06,+1.920833E+00
-2.0020000000E-06,+1.907292E+00
-2.0000000000E-06,+1.906250E+00
-1.9980000000E-06,+1.894792E+00
-1.9960000000E-06,+1.892708E+00
-1.9940000000E-06,+1.879167E+00
-1.9920000000E-06,+1.875000E+00
-1.9900000000E-06,+1.860417E+00
-1.9880000000E-06,+1.852083E+00
-1.9860000000E-06,+1.841667E+00
-1.9840000000E-06,+1.840625E+00
-1.9820000000E-06,+1.830208E+00
-1.9800000000E-06,+1.823958E+00
-1.9780000000E-06,+1.810417E+00
-1.9760000000E-06,+1.811458E+00
-1.9740000000E-06,+1.797917E+00
-1.9720000000E-06,+1.796875E+00
-1.9700000000E-06,+1.790625E+00
-1.9680000000E-06,+1.784375E+00
-1.9660000000E-06,+1.776042E+00
-1.9640000000E-06,+1.768750E+00
-1.9620000000E-06,+1.767708E+00
-1.9600000000E-06,+1.760417E+00
-1.9580000000E-06,+1.756250E+00
-1.9560000000E-06,+1.744792E+00
-1.9540000000E-06,+1.747917E+00
-1.9520000000E-06,+1.744792E+00
-1.9500000000E-06,+1.742708E+00
-1.9480000000E-06,+1.735417E+00
-1.9460000000E-06,+1.730208E+00
-1.9440000000E-06,+1.729167E+00
-1.9420000000E-06,+1.726042E+00
-1.9400000000E-06,+1.718750E+00
-1.9380000000E-06,+1.721875E+00
-1.9360000000E-06,+1.719792E+00
-1.9340000000E-06,+1.715625E+00
-1.9320000000E-06,+1.711458E+00
-1.9300000000E-06,+1.709375E+00
-1.9280000000E-06,+1.706250E+00
-1.9260000000E-06,+1.708333E+00
-1.9240000000E-06,+1.703125E+00
-1.9220000000E-06,+1.702083E+00
-1.9200000000E-06,+1.703125E+00
-1.9180000000E-06,+1.698958E+00
-1.9160000000E-06,+1.700000E+00
-1.9140000000E-06,+1.695833E+00
-1.9120000000E-06,+1.692708E+00
-1.9100000000E-06,+1.693750E+00
-1.9080000000E-06,+1.693750E+00
-1.9060000000E-06,+1.692708E+00
-1.9040000000E-06,+1.687500E+00
-1.9020000000E-06,+1.689583E+00
-1.9000000000E-06,+1.688542E+00
-1.8980000000E-06,+1.688542E+00
-1.8960000000E-06,+1.684375E+00
-1.8940000000E-06,+1.685417E+00
-1.8920000000E-06,+1.683333E+00
-1.8900000000E-06,+1.681250E+00
-1.8880000000E-06,+1.679167E+00
-1.8860000000E-06,+1.682292E+00
-1.8840000000E-06,+1.679167E+00
-1.8820000000E-06,+1.680208E+00
-1.8800000000E-06,+1.678125E+00
-1.8780000000E-06,+1.676042E+00
-1.8760000000E-06,+1.675000E+00
-1.8740000000E-06,+1.678125E+00
-1.8720000000E-06,+1.672917E+00
-1.8700000000E-06,+1.671875E+00
-1.8680000000E-06,+1.671875E+00
-1.8660000000E-06,+1.671875E+00
-1.8640000000E-06,+1.668750E+00
-1.8620000000E-06,+1.667708E+00
-1.8600000000E-06,+1.665625E+00
-1.8580000000E-06,+1.665625E+00
-1.8560000000E-06,+1.663542E+00
-1.8540000000E-06,+1.661458E+00
-1.8520000000E-06,+1.660417E+00
-1.8500000000E-06,+1.660417E+00
-1.8480000000E-06,+1.660417E+00
-1.8460000000E-06,+1.656250E+00
-1.8440000000E-06,+1.657292E+00
-1.8420000000E-06,+1.654167E+00
-1.8400000000E-06,+1.653125E+00
-1.8380000000E-06,+1.647917E+00
-1.8360000000E-06,+1.646875E+00
-1.8340000000E-06,+1.645833E+00
-1.8320000000E-06,+1.641667E+00
-1.8300000000E-06,+1.638542E+00
-1.8280000000E-06,+1.641667E+00
-1.8260000000E-06,+1.639583E+00
-1.8240000000E-06,+1.634375E+00
-1.8220000000E-06,+1.634375E+00
-1.8200000000E-06,+1.633333E+00
-1.8180000000E-06,+1.629167E+00
-1.8160000000E-06,+1.628125E+00
-1.8140000000E-06,+1.626042E+00
-1.8120000000E-06,+1.621875E+00
-1.8100000000E-06,+1.618750E+00
-1.8080000000E-06,+1.618750E+00
-1.8060000000E-06,+1.616667E+00
-1.8040000000E-06,+1.615625E+00
-1.8020000000E-06,+1.613542E+00
-1.8000000000E-06,+1.609375E+00
-1.7980000000E-06,+1.607292E+00
-1.7960000000E-06,+1.607292E+00
-1.7940000000E-06,+1.607292E+00
-1.7920000000E-06,+1.606250E+00
-1.7900000000E-06,+1.601042E+00
-1.7880000000E-06,+1.603125E+00
-1.7860000000E-06,+1.606250E+00
-1.7840000000E-06,+1.584375E+00
-1.7820000000E-06,+1.602083E+00
-1.7800000000E-06,+1.570833E+00
-1.7780000000E-06,+1.627083E+00
-1.7760000000E-06,+1.613542E+00
-1.7740000000E-06,+1.575000E+00
-1.7720000000E-06,+1.562500E+00
-1.7700000000E-06,+1.598958E+00
-1.7680000000E-06,+1.591667E+00
-1.7660000000E-06,+1.583333E+00
-1.7640000000E-06,+1.578125E+00
-1.7620000000E-06,+1.578125E+00
-1.7600000000E-06,+1.575000E+00
-1.7580000000E-06,+1.585417E+00
-1.7560000000E-06,+1.578125E+00
-1.7540000000E-06,+1.571875E+00
-1.7520000000E-06,+1.556250E+00
-1.7500000000E-06,+1.568750E+00
-1.7480000000E-06,+1.570833E+00
-1.7460000000E-06,+1.569792E+00
-1.7440000000E-06,+1.562500E+00
-1.7420000000E-06,+1.557292E+00
-1.7400000000E-06,+1.552083E+00
-1.7380000000E-06,+1.547917E+00
-1.7360000000E-06,+1.554167E+00
-1.7340000000E-06,+1.553125E+00
-1.7320000000E-06,+1.547917E+00
-1.7300000000E-06,+1.535417E+00
-1.7280000000E-06,+1.531250E+00
-1.7260000000E-06,+1.534375E+00
-1.7240000000E-06,+1.529167E+00
-1.7220000000E-06,+1.525000E+00
-1.7200000000E-06,+1.519792E+00
-1.7180000000E-06,+1.513542E+00
-1.7160000000E-06,+1.504167E+00
-1.7140000000E-06,+1.501042E+00
-1.7120000000E-06,+1.498958E+00
-1.7100000000E-06,+1.490625E+00
-1.7080000000E-06,+1.485417E+00
-1.7060000000E-06,+1.477083E+00
-1.7040000000E-06,+1.470833E+00
-1.7020000000E-06,+1.467708E+00
-1.7000000000E-06,+1.459375E+00
-1.6980000000E-06,+1.448958E+00
-1.6960000000E-06,+1.441667E+00
-1.6940000000E-06,+1.430208E+00
-1.6920000000E-06,+1.427083E+00
-1.6900000000E-06,+1.418750E+00
-1.6880000000E-06,+1.410417E+00
-1.6860000000E-06,+1.402083E+00
-1.6840000000E-06,+1.394792E+00
-1.6820000000E-06,+1.383333E+00
-1.6800000000E-06,+1.377083E+00
-1.6780000000E-06,+1.365625E+00
-1.6760000000E-06,+1.359375E+00
-1.6740000000E-06,+1.348958E+00
-1.6720000000E-06,+1.340625E+00
-1.6700000000E-06,+1.330208E+00
-1.6680000000E-06,+1.319792E+00
-1.6660000000E-06,+1.309375E+00
-1.6640000000E-06,+1.298958E+00
-1.6620000000E-06,+1.289583E+00
-1.6600000000E-06,+1.279167E+00
-1.6580000000E-06,+1.269792E+00
-1.6560000000E-06,+1.260417E+00
-1.6540000000E-06,+1.252083E+00
-1.6520000000E-06,+1.237500E+00
-1.6500000000E-06,+1.227083E+00
-1.6480000000E-06,+1.218750E+00
-1.6460000000E-06,+1.208333E+00
-1.6440000000E-06,+1.193750E+00
-1.6420000000E-06,+1.186458E+00
-1.6400000000E-06,+1.178125E+00
-1.6380000000E-06,+1.165625E+00
-1.6360000000E-06,+1.153125E+00
-1.6340000000E-06,+1.140625E+00
-1.6320000000E-06,+1.132292E+00
-1.6300000000E-06,+1.120833E+00
-1.6280000000E-06,+1.109375E+00
-1.6260000000E-06,+1.098958E+00
-1.6240000000E-06,+1.087500E+00
-1.6220000000E-06,+1.072917E+00
-1.6200000000E-06,+1.063542E+00
-1.6180000000E-06,+1.057292E+00
-1.6160000000E-06,+1.045833E+00
-1.6140000000E-06,+1.032292E+00
-1.6120000000E-06,+1.019792E+00
-1.6100000000E-06,+1.008333E+00
-1.6080000000E-06,+1.002083E+00
-1.6060000000E-06,+9.895834E-01
-1.6040000000E-06,+9.812500E-01
-1.6020000000E-06,+9.708334E-01
-1.6000000000E-06,+9.625000E-01
-1.5980000000E-06,+9.531251E-01
-1.5960000000E-06,+9.395834E-01
-1.5940000000E-06,+9.322917E-01
-1.5920000000E-06,+9.187500E-01
-1.5900000000E-06,+9.114584E-01
-1.5880000000E-06,+9.000000E-01
-1.5860000000E-06,+8.875000E-01
-1.5840000000E-06,+8.812500E-01
-1.5820000000E-06,+8.708334E-01
-1.5800000000E-06,+8.604168E-01
-1.5780000000E-06,+8.500000E-01
-1.5760000000E-06,+8.406250E-01
-1.5740000000E-06,+8.322917E-01
-1.5720000000E-06,+8.218750E-01
-1.5700000000E-06,+8.104167E-01
-1.5680000000E-06,+7.979167E-01
-1.5660000000E-06,+7.916667E-01
-1.5640000000E-06,+7.822918E-01
-1.5620000000E-06,+7.697917E-01
-1.5600000000E-06,+7.583333E-01
-1.5580000000E-06,+7.489583E-01
-1.5560000000E-06,+7.406250E-01
-1.5540000000E-06,+7.322917E-01
-1.5520000000E-06,+7.197917E-01
-1.5500000000E-06,+7.031250E-01
-1.5480000000E-06,+7.000000E-01
-1.5460000000E-06,+6.906250E-01
-1.5440000000E-06,+6.760417E-01
-1.5420000000E-06,+6.666667E-01
-1.5400000000E-06,+6.552083E-01
-1.5380000000E-06,+6.666667E-01
-1.5360000000E-06,+6.322917E-01
-1.5340000000E-06,+5.593750E-01
-1.5320000000E-06,+7.260417E-01
-1.5300000000E-06,+5.593750E-01
-1.5280000000E-06,+5.739584E-01
-1.5260000000E-06,+5.937500E-01
-1.5240000000E-06,+5.750000E-01
-1.5220000000E-06,+5.979167E-01
-1.5200000000E-06,+5.291667E-01
-1.5180000000E-06,+5.697917E-01
-1.5160000000E-06,+4.854167E-01
-1.5140000000E-06,+5.385417E-01
-1.5120000000E-06,+4.895833E-01
-1.5100000000E-06,+5.145833E-01
-1.5080000000E-06,+4.937500E-01
-1.5060000000E-06,+4.697917E-01
-1.5040000000E-06,+4.750000E-01
-1.5020000000E-06,+4.531250E-01
-1.5000000000E-06,+4.708334E-01
-1.4980000000E-06,+4.406250E-01
-1.4960000000E-06,+4.468750E-01
-1.4940000000E-06,+4.312500E-01
-1.4920000000E-06,+4.375000E-01
-1.4900000000E-06,+4.250000E-01
-1.4880000000E-06,+4.270834E-01
-1.4860000000E-06,+4.208334E-01
-1.4840000000E-06,+4.218751E-01
-1.4820000000E-06,+4.187500E-01
-1.4800000000E-06,+4.166667E-01
-1.4780000000E-06,+4.229167E-01
-1.4760000000E-06,+4.239584E-01
-1.4740000000E-06,+4.229167E-01
-1.4720000000E-06,+4.281250E-01
-1.4700000000E-06,+4.385417E-01
-1.4680000000E-06,+4.343750E-01
-1.4660000000E-06,+4.479167E-01
-1.4640000000E-06,+4.531250E-01
-1.4620000000E-06,+4.656250E-01
-1.4600000000E-06,+4.677084E-01
-1.4580000000E-06,+4.802084E-01
-1.4560000000E-06,+4.885417E-01
-1.4540000000E-06,+5.031251E-01
-1.4520000000E-06,+5.114584E-01
-1.4500000000E-06,+5.239583E-01
-1.4480000000E-06,+5.375000E-01
-1.4460000000E-06,+5.520834E-01
-1.4440000000E-06,+5.666667E-01
-1.4420000000E-06,+5.802084E-01
-1.4400000000E-06,+5.947917E-01
-1.4380000000E-06,+6.093750E-01
-1.4360000000E-06,+6.260417E-01
-1.4340000000E-06,+6.406251E-01
-1.4320000000E-06,+6.583334E-01
-1.4300000000E-06,+6.760417E-01
-1.4280000000E-06,+6.927084E-01
-1.4260000000E-06,+7.062501E-01
-1.4240000000E-06,+7.250000E-01
-1.4220000000E-06,+7.468750E-01
-1.4200000000E-06,+7.656250E-01
-1.4180000000E-06,+7.843751E-01
-1.4160000000E-06,+8.020834E-01
-1.4140000000E-06,+8.197917E-01
-1.4120000000E-06,+8.416667E-01
-1.4100000000E-06,+8.614584E-01
-1.4080000000E-06,+8.770834E-01
-1.4060000000E-06,+9.010417E-01
-1.4040000000E-06,+9.197917E-01
-1.4020000000E-06,+9.416667E-01
-1.4000000000E-06,+9.614584E-01
-1.3980000000E-06,+9.791667E-01
-1.3960000000E-06,+1.004167E+00
-1.3940000000E-06,+1.025000E+00
-1.3920000000E-06,+1.046875E+00
-1.3900000000E-06,+1.065625E+00
-1.3880000000E-06,+1.088542E+00
-1.3860000000E-06,+1.109375E+00
-1.3840000000E-06,+1.131250E+00
-1.3820000000E-06,+1.151042E+00
-1.3800000000E-06,+1.173958E+00
-1.3780000000E-06,+1.196875E+00
-1.3760000000E-06,+1.216667E+00
-1.3740000000E-06,+1.239583E+00
-1.3720000000E-06,+1.260417E+00
-1.3700000000E-06,+1.280208E+00
-1.3680000000E-06,+1.304167E+00
-1.3660000000E-06,+1.328125E+00
-1.3640000000E-06,+1.347917E+00
-1.3620000000E-06,+1.370833E+00
-1.3600000000E-06,+1.389583E+00
-1.3580000000E-06,+1.412500E+00
-1.3560000000E-06,+1.436458E+00
-1.3540000000E-06,+1.456250E+00
-1.3520000000E-06,+1.481250E+00
-1.3500000000E-06,+1.500000E+00
-1.3480000000E-06,+1.521875E+00
-1.3460000000E-06,+1.545833E+00
-1.3440000000E-06,+1.566667E+00
-1.3420000000E-06,+1.589583E+00
-1.3400000000E-06,+1.610417E+00
-1.3380000000E-06,+1.632292E+00
-1.3360000000E-06,+1.653125E+00
-1.3340000000E-06,+1.675000E+00
-1.3320000000E-06,+1.695833E+00
-1.3300000000E-06,+1.714583E+00
-1.3280000000E-06,+1.734375E+00
-1.3260000000E-06,+1.755208E+00
-1.3240000000E-06,+1.775000E+00
-1.3220000000E-06,+1.797917E+00
-1.3200000000E-06,+1.819792E+00
-1.3180000000E-06,+1.840625E+00
-1.3160000000E-06,+1.860417E+00
-1.3140000000E-06,+1.879167E+00
-1.3120000000E-06,+1.898958E+00
-1.3100000000E-06,+1.917708E+00
-1.3080000000E-06,+1.937500E+00
-1.3060000000E-06,+1.959375E+00
-1.3040000000E-06,+1.979167E+00
-1.3020000000E-06,+2.000000E+00
-1.3000000000E-06,+2.016667E+00
-1.2980000000E-06,+2.035417E+00
-1.2960000000E-06,+2.057292E+00
-1.2940000000E-06,+2.076042E+00
-1.2920000000E-06,+2.097917E+00
-1.2900000000E-06,+2.112500E+00
-1.2880000000E-06,+2.138542E+00
-1.2860000000E-06,+2.160417E+00
-1.2840000000E-06,+2.180208E+00
-1.2820000000E-06,+2.181250E+00
-1.2800000000E-06,+2.260417E+00
-1.2780000000E-06,+2.287500E+00
-1.2760000000E-06,+2.175000E+00
-1.2740000000E-06,+2.284375E+00
-1.2720000000E-06,+2.346875E+00
-1.2700000000E-06,+2.319792E+00
