figures/Python/1MHz 24V 0A 0.25 DB1-1/SDS1204X_HD_CSV_C3_6.csv

Record Length,Analog:2000
Sample Interval,1.000000E-09
Vertical Units,V,
Vertical Scale,+1.000000E+01
Vertical Offset,+1.983333E+01
Horizontal Units,s
Horizontal Scale,+2.000000E-07
Model,SDS1204X HD
Serial Number,SDSEV82X900772
Software Version,6.9.13.1.1.6.7
Source,CH3
Second,Value
-1.0000000000E-06,+4.708334E+00
-9.9900000000E-07,+2.270834E+00
-9.9800000000E-07,+1.562501E+00
-9.9700000000E-07,+1.125001E+00
-9.9600000000E-07,+9.375009E-01
-9.9500000000E-07,+2.291676E-01
-9.9400000000E-07,-1.041658E-01
-9.9300000000E-07,+2.500009E-01
-9.9200000000E-07,+2.708342E-01
-9.9100000000E-07,-2.708325E-01
-9.9000000000E-07,-2.916658E-01
-9.8900000000E-07,-8.333246E-02
-9.8800000000E-07,+1.666676E-01
-9.8700000000E-07,+4.166754E-02
-9.8600000000E-07,+8.754432E-07
-9.8500000000E-07,+8.333421E-02
-9.8400000000E-07,+3.125009E-01
-9.8300000000E-07,+2.708342E-01
-9.8200000000E-07,+1.875009E-01
-9.8100000000E-07,+1.458342E-01
-9.8000000000E-07,+2.500009E-01
-9.7900000000E-07,+1.875009E-01
-9.7800000000E-07,+8.333421E-02
-9.7700000000E-07,+6.250088E-02
-9.7600000000E-07,+1.458342E-01
-9.7500000000E-07,+1.458342E-01
-9.7400000000E-07,+1.041675E-01
-9.7300000000E-07,+8.333421E-02
-9.7200000000E-07,+1.666676E-01
-9.7100000000E-07,+2.291676E-01
-9.7000000000E-07,+1.666676E-01
-9.6900000000E-07,+4.166754E-02
-9.6800000000E-07,+1.458342E-01
-9.6700000000E-07,+1.250009E-01
-9.6600000000E-07,+1.458342E-01
-9.6500000000E-07,+4.166754E-02
-9.6400000000E-07,+1.041675E-01
-9.6300000000E-07,+1.250009E-01
-9.6200000000E-07,+6.250088E-02
-9.6100000000E-07,+4.166754E-02
-9.6000000000E-07,+1.041675E-01
-9.5900000000E-07,+1.250009E-01
-9.5800000000E-07,+8.333421E-02
-9.5700000000E-07,+8.333421E-02
-9.5600000000E-07,+1.250009E-01
-9.5500000000E-07,+8.333421E-02
-9.5400000000E-07,+4.166754E-02
-9.5300000000E-07,+8.754432E-07
-9.5200000000E-07,+2.083421E-02
-9.5100000000E-07,+8.333421E-02
-9.5000000000E-07,+1.458342E-01
-9.4900000000E-07,+8.333421E-02
-9.4800000000E-07,+8.333421E-02
-9.4700000000E-07,+4.166754E-02
-9.4600000000E-07,+8.333421E-02
-9.4500000000E-07,+4.166754E-02
-9.4400000000E-07,+1.250009E-01
-9.4300000000E-07,+6.250088E-02
-9.4200000000E-07,+1.041675E-01
-9.4100000000E-07,+8.333421E-02
-9.4000000000E-07,+2.083421E-02
-9.3900000000E-07,+4.166754E-02
-9.3800000000E-07,+1.250009E-01
-9.3700000000E-07,+4.166754E-02
-9.3600000000E-07,+8.333421E-02
-9.3500000000E-07,-1.249991E-01
-9.3400000000E-07,+6.250088E-02
-9.3300000000E-07,+2.083421E-02
-9.3200000000E-07,+8.333421E-02
-9.3100000000E-07,+8.754432E-07
-9.3000000000E-07,+1.041675E-01
-9.2900000000E-07,+4.166754E-02
-9.2800000000E-07,+6.250088E-02
-9.2700000000E-07,+2.083421E-02
-9.2600000000E-07,+6.250088E-02
-9.2500000000E-07,+4.166754E-02
-9.2400000000E-07,+1.250009E-01
-9.2300000000E-07,-4.166579E-02
-9.2200000000E-07,+4.166754E-02
-9.2100000000E-07,+8.754432E-07
-9.2000000000E-07,+8.333421E-02
-9.1900000000E-07,+6.250088E-02
-9.1800000000E-07,+8.754432E-07
-9.1700000000E-07,-4.166579E-02
-9.1600000000E-07,+4.166754E-02
-9.1500000000E-07,-2.083246E-02
-9.1400000000E-07,+4.166754E-02
-9.1300000000E-07,+8.754432E-07
-9.1200000000E-07,+8.333421E-02
-9.1100000000E-07,+8.754432E-07
-9.1000000000E-07,+8.333421E-02
-9.0900000000E-07,-2.083246E-02
-9.0800000000E-07,-2.083246E-02
-9.0700000000E-07,-1.249991E-01
-9.0600000000E-07,+8.754432E-07
-9.0500000000E-07,-6.249913E-02
-9.0400000000E-07,+8.754432E-07
-9.0300000000E-07,-4.166579E-02
-9.0200000000E-07,+1.041675E-01
-9.0100000000E-07,-2.083246E-02
-9.0000000000E-07,+4.166754E-02
-8.9900000000E-07,-6.249913E-02
-8.9800000000E-07,+2.083421E-02
-8.9700000000E-07,-2.083246E-02
-8.9600000000E-07,+6.250088E-02
-8.9500000000E-07,-2.083246E-02
-8.9400000000E-07,-2.083246E-02
-8.9300000000E-07,-8.333246E-02
-8.9200000000E-07,+4.166754E-02
-8.9100000000E-07,-4.166579E-02
-8.9000000000E-07,+2.083421E-02
-8.8900000000E-07,-4.166579E-02
-8.8800000000E-07,+6.250088E-02
-8.8700000000E-07,-4.166579E-02
-8.8600000000E-07,+2.083421E-02
-8.8500000000E-07,-6.249913E-02
-8.8400000000E-07,+8.754432E-07
-8.8300000000E-07,-2.083246E-02
-8.8200000000E-07,+4.166754E-02
-8.8100000000E-07,+2.083421E-02
-8.8000000000E-07,-2.083246E-02
-8.7900000000E-07,-2.083246E-02
-8.7800000000E-07,+8.754432E-07
-8.7700000000E-07,-6.249913E-02
-8.7600000000E-07,-2.083246E-02
-8.7500000000E-07,-6.249913E-02
-8.7400000000E-07,-2.083246E-02
-8.7300000000E-07,-6.249913E-02
-8.7200000000E-07,-6.249913E-02
-8.7100000000E-07,-8.333246E-02
-8.7000000000E-07,-4.166579E-02
-8.6900000000E-07,-1.041658E-01
-8.6800000000E-07,-1.041658E-01
-8.6700000000E-07,-1.249991E-01
-8.6600000000E-07,-2.083246E-02
-8.6500000000E-07,-1.041658E-01
-8.6400000000E-07,-4.166579E-02
-8.6300000000E-07,-1.249991E-01
-8.6200000000E-07,-6.249913E-02
-8.6100000000E-07,-8.333246E-02
-8.6000000000E-07,-6.249913E-02
-8.5900000000E-07,-8.333246E-02
-8.5800000000E-07,+2.083421E-02
-8.5700000000E-07,-8.333246E-02
-8.5600000000E-07,+2.083421E-02
-8.5500000000E-07,-1.041658E-01
-8.5400000000E-07,-6.249913E-02
-8.5300000000E-07,-8.333246E-02
-8.5200000000E-07,-8.333246E-02
-8.5100000000E-07,-1.249991E-01
-8.5000000000E-07,-8.333246E-02
-8.4900000000E-07,-1.041658E-01
-8.4800000000E-07,-6.249913E-02
-8.4700000000E-07,-1.874991E-01
-8.4600000000E-07,-8.333246E-02
-8.4500000000E-07,-2.083246E-02
-8.4400000000E-07,-2.083246E-02
-8.4300000000E-07,-4.166579E-02
-8.4200000000E-07,-2.083246E-02
-8.4100000000E-07,-1.458325E-01
-8.4000000000E-07,-8.333246E-02
-8.3900000000E-07,-1.666658E-01
-8.3800000000E-07,-1.249991E-01
-8.3700000000E-07,-1.666658E-01
-8.3600000000E-07,-8.333246E-02
-8.3500000000E-07,-1.041658E-01
-8.3400000000E-07,-6.249913E-02
-8.3300000000E-07,-1.041658E-01
-8.3200000000E-07,-6.249913E-02
-8.3100000000E-07,-1.249991E-01
-8.3000000000E-07,-8.333246E-02
-8.2900000000E-07,-8.333246E-02
-8.2800000000E-07,-8.333246E-02
-8.2700000000E-07,-1.249991E-01
-8.2600000000E-07,-8.333246E-02
-8.2500000000E-07,-1.041658E-01
-8.2400000000E-07,-2.083246E-02
-8.2300000000E-07,-1.666658E-01
-8.2200000000E-07,-1.041658E-01
-8.2100000000E-07,-1.249991E-01
-8.2000000000E-07,-1.249991E-01
-8.1900000000E-07,-1.666658E-01
-8.1800000000E-07,-8.333246E-02
-8.1700000000E-07,-8.333246E-02
-8.1600000000E-07,-2.083246E-02
-8.1500000000E-07,-1.458325E-01
-8.1400000000E-07,-1.041658E-01
-8.1300000000E-07,-8.333246E-02
-8.1200000000E-07,-8.333246E-02
-8.1100000000E-07,-1.666658E-01
-8.1000000000E-07,-1.458325E-01
-8.0900000000E-07,-1.666658E-01
-8.0800000000E-07,-4.166579E-02
-8.0700000000E-07,-8.333246E-02
-8.0600000000E-07,-1.041658E-01
-8.0500000000E-07,-1.666658E-01
-8.0400000000E-07,-8.333246E-02
-8.0300000000E-07,-1.249991E-01
-8.0200000000E-07,-1.249991E-01
-8.0100000000E-07,-1.458325E-01
-8.0000000000E-07,-2.291658E-01
-7.9900000000E-07,-1.666658E-01
-7.9800000000E-07,-1.249991E-01
-7.9700000000E-07,-1.249991E-01
-7.9600000000E-07,-8.333246E-02
-7.9500000000E-07,-1.458325E-01
-7.9400000000E-07,-1.249991E-01
-7.9300000000E-07,-1.874991E-01
-7.9200000000E-07,-1.249991E-01
-7.9100000000E-07,-2.291658E-01
-7.9000000000E-07,-1.666658E-01
-7.8900000000E-07,-1.458325E-01
-7.8800000000E-07,-1.458325E-01
-7.8700000000E-07,-1.874991E-01
-7.8600000000E-07,-1.249991E-01
-7.8500000000E-07,-1.874991E-01
-7.8400000000E-07,-1.458325E-01
-7.8300000000E-07,-1.874991E-01
-7.8200000000E-07,-1.458325E-01
-7.8100000000E-07,-2.083325E-01
-7.8000000000E-07,-1.458325E-01
-7.7900000000E-07,-2.083325E-01
-7.7800000000E-07,-1.249991E-01
-7.7700000000E-07,-1.874991E-01
-7.7600000000E-07,-2.083325E-01
-7.7500000000E-07,-2.083325E-01
-7.7400000000E-07,-1.666658E-01
-7.7300000000E-07,-2.083325E-01
-7.7200000000E-07,-1.249991E-01
-7.7100000000E-07,-2.083325E-01
-7.7000000000E-07,-1.041658E-01
-7.6900000000E-07,-1.666658E-01
-7.6800000000E-07,-1.249991E-01
-7.6700000000E-07,-1.666658E-01
-7.6600000000E-07,-1.458325E-01
-7.6500000000E-07,-1.666658E-01
-7.6400000000E-07,-1.041658E-01
-7.6300000000E-07,-2.083325E-01
-7.6200000000E-07,-1.874991E-01
-7.6100000000E-07,-2.291658E-01
-7.6000000000E-07,-1.249991E-01
-7.5900000000E-07,-1.874991E-01
-7.5800000000E-07,-1.666658E-01
-7.5700000000E-07,-2.291658E-01
-7.5600000000E-07,-1.874991E-01
-7.5500000000E-07,-2.499991E-01
-7.5400000000E-07,-1.458325E-01
-7.5300000000E-07,-2.291658E-01
-7.5200000000E-07,-1.458325E-01
-7.5100000000E-07,-2.499991E-01
-7.5000000000E-07,-1.249991E-01
-7.4900000000E-07,-2.291658E-01
-7.4800000000E-07,-1.666658E-01
-7.4700000000E-07,-1.249991E-01
-7.4600000000E-07,-1.041658E-01
-7.4500000000E-07,-1.729166E+00
-7.4400000000E-07,-9.541666E+00
-7.4300000000E-07,-2.606250E+01
-7.4200000000E-07,-2.872917E+01
-7.4100000000E-07,-3.372917E+01
-7.4000000000E-07,-3.225000E+01
-7.3900000000E-07,-2.150000E+01
-7.3800000000E-07,-2.572917E+01
-7.3700000000E-07,-2.714583E+01
-7.3600000000E-07,-2.262500E+01
-7.3500000000E-07,-2.600000E+01
-7.3400000000E-07,-2.589583E+01
-7.3300000000E-07,-2.266667E+01
-7.3200000000E-07,-2.483333E+01
-7.3100000000E-07,-2.479167E+01
-7.3000000000E-07,-2.256250E+01
-7.2900000000E-07,-2.454167E+01
-7.2800000000E-07,-2.475000E+01
-7.2700000000E-07,-2.300000E+01
-7.2600000000E-07,-2.466667E+01
-7.2500000000E-07,-2.441667E+01
-7.2400000000E-07,-2.318750E+01
-7.2300000000E-07,-2.454167E+01
-7.2200000000E-07,-2.416667E+01
-7.2100000000E-07,-2.358333E+01
-7.2000000000E-07,-2.454167E+01
-7.1900000000E-07,-2.410417E+01
-7.1800000000E-07,-2.383333E+01
-7.1700000000E-07,-2.445833E+01
-7.1600000000E-07,-2.397917E+01
-7.1500000000E-07,-2.397917E+01
-7.1400000000E-07,-2.422917E+01
-7.1300000000E-07,-2.404167E+01
-7.1200000000E-07,-2.400000E+01
-7.1100000000E-07,-2.414583E+01
-7.1000000000E-07,-2.389583E+01
-7.0900000000E-07,-2.397917E+01
-7.0800000000E-07,-2.395833E+01
-7.0700000000E-07,-2.400000E+01
-7.0600000000E-07,-2.404167E+01
-7.0500000000E-07,-2.404167E+01
-7.0400000000E-07,-2.393750E+01
-7.0300000000E-07,-2.397917E+01
-7.0200000000E-07,-2.395833E+01
-7.0100000000E-07,-2.397917E+01
-7.0000000000E-07,-2.385417E+01
-6.9900000000E-07,-2.385417E+01
-6.9800000000E-07,-2.385417E+01
-6.9700000000E-07,-2.391667E+01
-6.9600000000E-07,-2.391667E+01
-6.9500000000E-07,-2.389583E+01
-6.9400000000E-07,-2.397917E+01
-6.9300000000E-07,-2.395833E+01
-6.9200000000E-07,-2.391667E+01
-6.9100000000E-07,-2.391667E+01
-6.9000000000E-07,-2.381250E+01
-6.8900000000E-07,-2.389583E+01
-6.8800000000E-07,-2.383333E+01
-6.8700000000E-07,-2.389583E+01
-6.8600000000E-07,-2.389583E+01
-6.8500000000E-07,-2.391667E+01
-6.8400000000E-07,-2.385417E+01
-6.8300000000E-07,-2.389583E+01
-6.8200000000E-07,-2.387500E+01
-6.8100000000E-07,-2.393750E+01
-6.8000000000E-07,-2.385417E+01
-6.7900000000E-07,-2.389583E+01
-6.7800000000E-07,-2.389583E+01
-6.7700000000E-07,-2.387500E+01
-6.7600000000E-07,-2.385417E+01
-6.7500000000E-07,-2.389583E+01
-6.7400000000E-07,-2.385417E+01
-6.7300000000E-07,-2.387500E+01
-6.7200000000E-07,-2.391667E+01
-6.7100000000E-07,-2.393750E+01
-6.7000000000E-07,-2.389583E+01
-6.6900000000E-07,-2.395833E+01
-6.6800000000E-07,-2.393750E+01
-6.6700000000E-07,-2.393750E+01
-6.6600000000E-07,-2.391667E+01
-6.6500000000E-07,-2.389583E+01
-6.6400000000E-07,-2.393750E+01
-6.6300000000E-07,-2.389583E+01
-6.6200000000E-07,-2.383333E+01
-6.6100000000E-07,-2.389583E+01
-6.6000000000E-07,-2.391667E+01
-6.5900000000E-07,-2.397917E+01
-6.5800000000E-07,-2.391667E+01
-6.5700000000E-07,-2.391667E+01
-6.5600000000E-07,-2.395833E+01
-6.5500000000E-07,-2.400000E+01
-6.5400000000E-07,-2.389583E+01
-6.5300000000E-07,-2.389583E+01
-6.5200000000E-07,-2.389583E+01
-6.5100000000E-07,-2.389583E+01
-6.5000000000E-07,-2.391667E+01
-6.4900000000E-07,-2.395833E+01
-6.4800000000E-07,-2.393750E+01
-6.4700000000E-07,-2.395833E+01
-6.4600000000E-07,-2.391667E+01
-6.4500000000E-07,-2.393750E+01
-6.4400000000E-07,-2.391667E+01
-6.4300000000E-07,-2.391667E+01
-6.4200000000E-07,-2.391667E+01
-6.4100000000E-07,-2.389583E+01
-6.4000000000E-07,-2.393750E+01
-6.3900000000E-07,-2.393750E+01
-6.3800000000E-07,-2.387500E+01
-6.3700000000E-07,-2.389583E+01
-6.3600000000E-07,-2.389583E+01
-6.3500000000E-07,-2.393750E+01
-6.3400000000E-07,-2.389583E+01
-6.3300000000E-07,-2.389583E+01
-6.3200000000E-07,-2.385417E+01
-6.3100000000E-07,-2.391667E+01
-6.3000000000E-07,-2.391667E+01
-6.2900000000E-07,-2.391667E+01
-6.2800000000E-07,-2.391667E+01
-6.2700000000E-07,-2.383333E+01
-6.2600000000E-07,-2.385417E+01
-6.2500000000E-07,-2.385417E+01
-6.2400000000E-07,-2.391667E+01
-6.2300000000E-07,-2.387500E+01
-6.2200000000E-07,-2.381250E+01
-6.2100000000E-07,-2.387500E+01
-6.2000000000E-07,-2.387500E+01
-6.1900000000E-07,-2.381250E+01
-6.1800000000E-07,-2.383333E+01
-6.1700000000E-07,-2.387500E+01
-6.1600000000E-07,-2.383333E+01
-6.1500000000E-07,-2.387500E+01
-6.1400000000E-07,-2.381250E+01
-6.1300000000E-07,-2.389583E+01
-6.1200000000E-07,-2.385417E+01
-6.1100000000E-07,-2.387500E+01
-6.1000000000E-07,-2.379167E+01
-6.0900000000E-07,-2.387500E+01
-6.0800000000E-07,-2.385417E+01
-6.0700000000E-07,-2.383333E+01
-6.0600000000E-07,-2.385417E+01
-6.0500000000E-07,-2.389583E+01
-6.0400000000E-07,-2.389583E+01
-6.0300000000E-07,-2.387500E+01
-6.0200000000E-07,-2.381250E+01
-6.0100000000E-07,-2.383333E+01
-6.0000000000E-07,-2.385417E+01
-5.9900000000E-07,-2.389583E+01
-5.9800000000E-07,-2.383333E+01
-5.9700000000E-07,-2.387500E+01
-5.9600000000E-07,-2.385417E+01
-5.9500000000E-07,-2.389583E+01
-5.9400000000E-07,-2.381250E+01
-5.9300000000E-07,-2.385417E+01
-5.9200000000E-07,-2.381250E+01
-5.9100000000E-07,-2.391667E+01
-5.9000000000E-07,-2.385417E+01
-5.8900000000E-07,-2.385417E+01
-5.8800000000E-07,-2.389583E+01
-5.8700000000E-07,-2.391667E+01
-5.8600000000E-07,-2.391667E+01
-5.8500000000E-07,-2.387500E+01
-5.8400000000E-07,-2.391667E+01
-5.8300000000E-07,-2.385417E+01
-5.8200000000E-07,-2.383333E+01
-5.8100000000E-07,-2.389583E+01
-5.8000000000E-07,-2.387500E+01
-5.7900000000E-07,-2.391667E+01
-5.7800000000E-07,-2.385417E+01
-5.7700000000E-07,-2.387500E+01
-5.7600000000E-07,-2.387500E+01
-5.7500000000E-07,-2.385417E+01
-5.7400000000E-07,-2.385417E+01
-5.7300000000E-07,-2.391667E+01
-5.7200000000E-07,-2.387500E+01
-5.7100000000E-07,-2.391667E+01
-5.7000000000E-07,-2.383333E+01
-5.6900000000E-07,-2.389583E+01
-5.6800000000E-07,-2.387500E+01
-5.6700000000E-07,-2.391667E+01
-5.6600000000E-07,-2.389583E+01
-5.6500000000E-07,-2.400000E+01
-5.6400000000E-07,-2.387500E+01
-5.6300000000E-07,-2.391667E+01
-5.6200000000E-07,-2.385417E+01
-5.6100000000E-07,-2.379167E+01
-5.6000000000E-07,-2.387500E+01
-5.5900000000E-07,-2.383333E+01
-5.5800000000E-07,-2.385417E+01
-5.5700000000E-07,-2.389583E+01
-5.5600000000E-07,-2.381250E+01
-5.5500000000E-07,-2.393750E+01
-5.5400000000E-07,-2.389583E+01
-5.5300000000E-07,-2.389583E+01
-5.5200000000E-07,-2.387500E+01
-5.5100000000E-07,-2.393750E+01
-5.5000000000E-07,-2.387500E+01
-5.4900000000E-07,-2.389583E+01
-5.4800000000E-07,-2.389583E+01
-5.4700000000E-07,-2.387500E+01
-5.4600000000E-07,-2.387500E+01
-5.4500000000E-07,-2.387500E+01
-5.4400000000E-07,-2.387500E+01
-5.4300000000E-07,-2.385417E+01
-5.4200000000E-07,-2.383333E+01
-5.4100000000E-07,-2.391667E+01
-5.4000000000E-07,-2.381250E+01
-5.3900000000E-07,-2.387500E+01
-5.3800000000E-07,-2.385417E+01
-5.3700000000E-07,-2.389583E+01
-5.3600000000E-07,-2.383333E+01
-5.3500000000E-07,-2.385417E+01
-5.3400000000E-07,-2.385417E+01
-5.3300000000E-07,-2.389583E+01
-5.3200000000E-07,-2.385417E+01
-5.3100000000E-07,-2.387500E+01
-5.3000000000E-07,-2.387500E+01
-5.2900000000E-07,-2.387500E+01
-5.2800000000E-07,-2.391667E+01
-5.2700000000E-07,-2.391667E+01
-5.2600000000E-07,-2.383333E+01
-5.2500000000E-07,-2.387500E+01
-5.2400000000E-07,-2.377083E+01
-5.2300000000E-07,-2.387500E+01
-5.2200000000E-07,-2.385417E+01
-5.2100000000E-07,-2.389583E+01
-5.2000000000E-07,-2.387500E+01
-5.1900000000E-07,-2.381250E+01
-5.1800000000E-07,-2.385417E+01
-5.1700000000E-07,-2.381250E+01
-5.1600000000E-07,-2.383333E+01
-5.1500000000E-07,-2.389583E+01
-5.1400000000E-07,-2.383333E+01
-5.1300000000E-07,-2.393750E+01
-5.1200000000E-07,-2.379167E+01
-5.1100000000E-07,-2.387500E+01
-5.1000000000E-07,-2.383333E+01
-5.0900000000E-07,-2.379167E+01
-5.0800000000E-07,-2.381250E+01
-5.0700000000E-07,-2.383333E+01
-5.0600000000E-07,-2.379167E+01
-5.0500000000E-07,-2.385417E+01
-5.0400000000E-07,-2.379167E+01
-5.0300000000E-07,-2.391667E+01
-5.0200000000E-07,-2.387500E+01
-5.0100000000E-07,-2.379167E+01
-5.0000000000E-07,-2.387500E+01
-4.9900000000E-07,-2.381250E+01
-4.9800000000E-07,-2.385417E+01
-4.9700000000E-07,-2.410417E+01
-4.9600000000E-07,-2.377083E+01
-4.9500000000E-07,-2.381250E+01
-4.9400000000E-07,-2.387500E+01
-4.9300000000E-07,-2.402083E+01
-4.9200000000E-07,-2.393750E+01
-4.9100000000E-07,-2.379167E+01
-4.9000000000E-07,-2.385417E+01
-4.8900000000E-07,-2.402083E+01
-4.8800000000E-07,-2.391667E+01
-4.8700000000E-07,-2.387500E+01
-4.8600000000E-07,-2.379167E+01
-4.8500000000E-07,-2.397917E+01
-4.8400000000E-07,-2.400000E+01
-4.8300000000E-07,-2.402083E+01
-4.8200000000E-07,-2.393750E+01
-4.8100000000E-07,-2.393750E+01
-4.8000000000E-07,-2.395833E+01
-4.7900000000E-07,-2.393750E+01
-4.7800000000E-07,-2.383333E+01
-4.7700000000E-07,-2.391667E+01
-4.7600000000E-07,-2.385417E+01
-4.7500000000E-07,-2.391667E+01
-4.7400000000E-07,-2.385417E+01
-4.7300000000E-07,-2.395833E+01
-4.7200000000E-07,-2.391667E+01
-4.7100000000E-07,-2.393750E+01
-4.7000000000E-07,-2.385417E+01
-4.6900000000E-07,-2.391667E+01
-4.6800000000E-07,-2.391667E+01
-4.6700000000E-07,-2.393750E+01
-4.6600000000E-07,-2.389583E+01
-4.6500000000E-07,-2.393750E+01
-4.6400000000E-07,-2.389583E+01
-4.6300000000E-07,-2.397917E+01
-4.6200000000E-07,-2.387500E+01
-4.6100000000E-07,-2.393750E+01
-4.6000000000E-07,-2.391667E+01
-4.5900000000E-07,-2.404167E+01
-4.5800000000E-07,-2.393750E+01
-4.5700000000E-07,-2.400000E+01
-4.5600000000E-07,-2.389583E+01
-4.5500000000E-07,-2.395833E+01
-4.5400000000E-07,-2.391667E+01
-4.5300000000E-07,-2.395833E+01
-4.5200000000E-07,-2.389583E+01
-4.5100000000E-07,-2.389583E+01
-4.5000000000E-07,-2.389583E+01
-4.4900000000E-07,-2.397917E+01
-4.4800000000E-07,-2.387500E+01
-4.4700000000E-07,-2.389583E+01
-4.4600000000E-07,-2.391667E+01
-4.4500000000E-07,-2.397917E+01
-4.4400000000E-07,-2.395833E+01
-4.4300000000E-07,-2.402083E+01
-4.4200000000E-07,-2.391667E+01
-4.4100000000E-07,-2.391667E+01
-4.4000000000E-07,-2.385417E+01
-4.3900000000E-07,-2.397917E+01
-4.3800000000E-07,-2.389583E+01
-4.3700000000E-07,-2.400000E+01
-4.3600000000E-07,-2.393750E+01
-4.3500000000E-07,-2.402083E+01
-4.3400000000E-07,-2.387500E+01
-4.3300000000E-07,-2.391667E+01
-4.3200000000E-07,-2.393750E+01
-4.3100000000E-07,-2.397917E+01
-4.3000000000E-07,-2.393750E+01
-4.2900000000E-07,-2.397917E+01
-4.2800000000E-07,-2.397917E+01
-4.2700000000E-07,-2.400000E+01
-4.2600000000E-07,-2.393750E+01
-4.2500000000E-07,-2.397917E+01
-4.2400000000E-07,-2.395833E+01
-4.2300000000E-07,-2.393750E+01
-4.2200000000E-07,-2.389583E+01
-4.2100000000E-07,-2.391667E+01
-4.2000000000E-07,-2.389583E+01
-4.1900000000E-07,-2.393750E+01
-4.1800000000E-07,-2.391667E+01
-4.1700000000E-07,-2.397917E+01
-4.1600000000E-07,-2.393750E+01
-4.1500000000E-07,-2.397917E+01
-4.1400000000E-07,-2.393750E+01
-4.1300000000E-07,-2.395833E+01
-4.1200000000E-07,-2.389583E+01
-4.1100000000E-07,-2.389583E+01
-4.1000000000E-07,-2.391667E+01
-4.0900000000E-07,-2.397917E+01
-4.0800000000E-07,-2.389583E+01
-4.0700000000E-07,-2.395833E+01
-4.0600000000E-07,-2.391667E+01
-4.0500000000E-07,-2.389583E+01
-4.0400000000E-07,-2.393750E+01
-4.0300000000E-07,-2.391667E+01
-4.0200000000E-07,-2.391667E+01
-4.0100000000E-07,-2.395833E+01
-4.0000000000E-07,-2.397917E+01
-3.9900000000E-07,-2.397917E+01
-3.9800000000E-07,-2.395833E+01
-3.9700000000E-07,-2.395833E+01
-3.9600000000E-07,-2.387500E+01
-3.9500000000E-07,-2.387500E+01
-3.9400000000E-07,-2.393750E+01
-3.9300000000E-07,-2.393750E+01
-3.9200000000E-07,-2.400000E+01
-3.9100000000E-07,-2.395833E+01
-3.9000000000E-07,-2.389583E+01
-3.8900000000E-07,-2.393750E+01
-3.8800000000E-07,-2.389583E+01
-3.8700000000E-07,-2.391667E+01
-3.8600000000E-07,-2.395833E+01
-3.8500000000E-07,-2.391667E+01
