figures/Python/2MHz 48V 0A 0.27 DB1-1/SDS1204X_HD_CSV_C4_2.csv

Record Length,Analog:1000
Sample Interval,2.000000E-09
Vertical Units,V,
Vertical Scale,+5.000000E-01
Vertical Offset,-1.658333E+00
Horizontal Units,s
Horizontal Scale,+2.000000E-07
Model,SDS1204X HD
Serial Number,SDSEV82X900772
Software Version,6.9.13.1.1.6.7
Source,CH4
Second,Value
-1.0000000000E-06,+1.592708E+00
-9.9800000000E-07,+1.582292E+00
-9.9600000000E-07,+1.589583E+00
-9.9400000000E-07,+1.590625E+00
-9.9200000000E-07,+1.588542E+00
-9.9000000000E-07,+1.591667E+00
-9.8800000000E-07,+1.588542E+00
-9.8600000000E-07,+1.590625E+00
-9.8400000000E-07,+1.579167E+00
-9.8200000000E-07,+1.595833E+00
-9.8000000000E-07,+1.592708E+00
-9.7800000000E-07,+1.591667E+00
-9.7600000000E-07,+1.580208E+00
-9.7400000000E-07,+1.585417E+00
-9.7200000000E-07,+1.583333E+00
-9.7000000000E-07,+1.581250E+00
-9.6800000000E-07,+1.575000E+00
-9.6600000000E-07,+1.566667E+00
-9.6400000000E-07,+1.563542E+00
-9.6200000000E-07,+1.557292E+00
-9.6000000000E-07,+1.553125E+00
-9.5800000000E-07,+1.547917E+00
-9.5600000000E-07,+1.536458E+00
-9.5400000000E-07,+1.530208E+00
-9.5200000000E-07,+1.518750E+00
-9.5000000000E-07,+1.509375E+00
-9.4800000000E-07,+1.502083E+00
-9.4600000000E-07,+1.490625E+00
-9.4400000000E-07,+1.480208E+00
-9.4200000000E-07,+1.467708E+00
-9.4000000000E-07,+1.457292E+00
-9.3800000000E-07,+1.444792E+00
-9.3600000000E-07,+1.431250E+00
-9.3400000000E-07,+1.416667E+00
-9.3200000000E-07,+1.402083E+00
-9.3000000000E-07,+1.385417E+00
-9.2800000000E-07,+1.371875E+00
-9.2600000000E-07,+1.357292E+00
-9.2400000000E-07,+1.337500E+00
-9.2200000000E-07,+1.323958E+00
-9.2000000000E-07,+1.307292E+00
-9.1800000000E-07,+1.288542E+00
-9.1600000000E-07,+1.270833E+00
-9.1400000000E-07,+1.254167E+00
-9.1200000000E-07,+1.231250E+00
-9.1000000000E-07,+1.210417E+00
-9.0800000000E-07,+1.201042E+00
-9.0600000000E-07,+1.179167E+00
-9.0400000000E-07,+1.155208E+00
-9.0200000000E-07,+1.135417E+00
-9.0000000000E-07,+1.102083E+00
-8.9800000000E-07,+1.079167E+00
-8.9600000000E-07,+1.103125E+00
-8.9400000000E-07,+9.968750E-01
-8.9200000000E-07,+1.067708E+00
-8.9000000000E-07,+9.906250E-01
-8.8800000000E-07,+9.760417E-01
-8.8600000000E-07,+9.500000E-01
-8.8400000000E-07,+9.250000E-01
-8.8200000000E-07,+9.177083E-01
-8.8000000000E-07,+8.791667E-01
-8.7800000000E-07,+8.666667E-01
-8.7600000000E-07,+8.343750E-01
-8.7400000000E-07,+8.239584E-01
-8.7200000000E-07,+7.968751E-01
-8.7000000000E-07,+7.708334E-01
-8.6800000000E-07,+7.562500E-01
-8.6600000000E-07,+7.166667E-01
-8.6400000000E-07,+7.093751E-01
-8.6200000000E-07,+6.791667E-01
-8.6000000000E-07,+6.697917E-01
-8.5800000000E-07,+6.375000E-01
-8.5600000000E-07,+6.322917E-01
-8.5400000000E-07,+6.072917E-01
-8.5200000000E-07,+5.968750E-01
-8.5000000000E-07,+5.854167E-01
-8.4800000000E-07,+5.760417E-01
-8.4600000000E-07,+5.635417E-01
-8.4400000000E-07,+5.541667E-01
-8.4200000000E-07,+5.489584E-01
-8.4000000000E-07,+5.489584E-01
-8.3800000000E-07,+5.479167E-01
-8.3600000000E-07,+5.468751E-01
-8.3400000000E-07,+5.531250E-01
-8.3200000000E-07,+5.552084E-01
-8.3000000000E-07,+5.645834E-01
-8.2800000000E-07,+5.718750E-01
-8.2600000000E-07,+5.833334E-01
-8.2400000000E-07,+5.968750E-01
-8.2200000000E-07,+6.104167E-01
-8.2000000000E-07,+6.229167E-01
-8.1800000000E-07,+6.395834E-01
-8.1600000000E-07,+6.583334E-01
-8.1400000000E-07,+6.718750E-01
-8.1200000000E-07,+6.885417E-01
-8.1000000000E-07,+7.125001E-01
-8.0800000000E-07,+7.302084E-01
-8.0600000000E-07,+7.510417E-01
-8.0400000000E-07,+7.760417E-01
-8.0200000000E-07,+7.979167E-01
-8.0000000000E-07,+8.239584E-01
-7.9800000000E-07,+8.458334E-01
-7.9600000000E-07,+8.708334E-01
-7.9400000000E-07,+9.010417E-01
-7.9200000000E-07,+9.281250E-01
-7.9000000000E-07,+9.541667E-01
-7.8800000000E-07,+9.802084E-01
-7.8600000000E-07,+1.010417E+00
-7.8400000000E-07,+1.040625E+00
-7.8200000000E-07,+1.067708E+00
-7.8000000000E-07,+1.100000E+00
-7.7800000000E-07,+1.136458E+00
-7.7600000000E-07,+1.166667E+00
-7.7400000000E-07,+1.197917E+00
-7.7200000000E-07,+1.234375E+00
-7.7000000000E-07,+1.268750E+00
-7.6800000000E-07,+1.292708E+00
-7.6600000000E-07,+1.355208E+00
-7.6400000000E-07,+1.446875E+00
-7.6200000000E-07,+1.360417E+00
-7.6000000000E-07,+1.417708E+00
-7.5800000000E-07,+1.522917E+00
-7.5600000000E-07,+1.538542E+00
-7.5400000000E-07,+1.577083E+00
-7.5200000000E-07,+1.590625E+00
-7.5000000000E-07,+1.645833E+00
-7.4800000000E-07,+1.669792E+00
-7.4600000000E-07,+1.714583E+00
-7.4400000000E-07,+1.763542E+00
-7.4200000000E-07,+1.791667E+00
-7.4000000000E-07,+1.822917E+00
-7.3800000000E-07,+1.858333E+00
-7.3600000000E-07,+1.901042E+00
-7.3400000000E-07,+1.934375E+00
-7.3200000000E-07,+1.972917E+00
-7.3000000000E-07,+2.005208E+00
-7.2800000000E-07,+2.047917E+00
-7.2600000000E-07,+2.082292E+00
-7.2400000000E-07,+2.115625E+00
-7.2200000000E-07,+2.152083E+00
-7.2000000000E-07,+2.191667E+00
-7.1800000000E-07,+2.231250E+00
-7.1600000000E-07,+2.262500E+00
-7.1400000000E-07,+2.293750E+00
-7.1200000000E-07,+2.322917E+00
-7.1000000000E-07,+2.359375E+00
-7.0800000000E-07,+2.390625E+00
-7.0600000000E-07,+2.420833E+00
-7.0400000000E-07,+2.455209E+00
-7.0200000000E-07,+2.490625E+00
-7.0000000000E-07,+2.525000E+00
-6.9800000000E-07,+2.551042E+00
-6.9600000000E-07,+2.580209E+00
-6.9400000000E-07,+2.609375E+00
-6.9200000000E-07,+2.641667E+00
-6.9000000000E-07,+2.670834E+00
-6.8800000000E-07,+2.701042E+00
-6.8600000000E-07,+2.720833E+00
-6.8400000000E-07,+2.750000E+00
-6.8200000000E-07,+2.777083E+00
-6.8000000000E-07,+2.798958E+00
-6.7800000000E-07,+2.819792E+00
-6.7600000000E-07,+2.841667E+00
-6.7400000000E-07,+2.864583E+00
-6.7200000000E-07,+2.876042E+00
-6.7000000000E-07,+2.889583E+00
-6.6800000000E-07,+2.912500E+00
-6.6600000000E-07,+2.921875E+00
-6.6400000000E-07,+2.931250E+00
-6.6200000000E-07,+2.942708E+00
-6.6000000000E-07,+2.943750E+00
-6.5800000000E-07,+2.951042E+00
-6.5600000000E-07,+2.953125E+00
-6.5400000000E-07,+2.944792E+00
-6.5200000000E-07,+2.942708E+00
-6.5000000000E-07,+2.921875E+00
-6.4800000000E-07,+2.879167E+00
-6.4600000000E-07,+2.943750E+00
-6.4400000000E-07,+2.954167E+00
-6.4200000000E-07,+2.755208E+00
-6.4000000000E-07,+2.922917E+00
-6.3800000000E-07,+2.765625E+00
-6.3600000000E-07,+2.866667E+00
-6.3400000000E-07,+2.739583E+00
-6.3200000000E-07,+2.786458E+00
-6.3000000000E-07,+2.696875E+00
-6.2800000000E-07,+2.718750E+00
-6.2600000000E-07,+2.665625E+00
-6.2400000000E-07,+2.651042E+00
-6.2200000000E-07,+2.615625E+00
-6.2000000000E-07,+2.569792E+00
-6.1800000000E-07,+2.567708E+00
-6.1600000000E-07,+2.504167E+00
-6.1400000000E-07,+2.510417E+00
-6.1200000000E-07,+2.451042E+00
-6.1000000000E-07,+2.441667E+00
-6.0800000000E-07,+2.381250E+00
-6.0600000000E-07,+2.369792E+00
-6.0400000000E-07,+2.336458E+00
-6.0200000000E-07,+2.309375E+00
-6.0000000000E-07,+2.281250E+00
-5.9800000000E-07,+2.248958E+00
-5.9600000000E-07,+2.221875E+00
-5.9400000000E-07,+2.193750E+00
-5.9200000000E-07,+2.170833E+00
-5.9000000000E-07,+2.142709E+00
-5.8800000000E-07,+2.120833E+00
-5.8600000000E-07,+2.089583E+00
-5.8400000000E-07,+2.066667E+00
-5.8200000000E-07,+2.040625E+00
-5.8000000000E-07,+2.016667E+00
-5.7800000000E-07,+1.995833E+00
-5.7600000000E-07,+1.969792E+00
-5.7400000000E-07,+1.948958E+00
-5.7200000000E-07,+1.926042E+00
-5.7000000000E-07,+1.907292E+00
-5.6800000000E-07,+1.885417E+00
-5.6600000000E-07,+1.863542E+00
-5.6400000000E-07,+1.841667E+00
-5.6200000000E-07,+1.823958E+00
-5.6000000000E-07,+1.803125E+00
-5.5800000000E-07,+1.787500E+00
-5.5600000000E-07,+1.769792E+00
-5.5400000000E-07,+1.752083E+00
-5.5200000000E-07,+1.734375E+00
-5.5000000000E-07,+1.719792E+00
-5.4800000000E-07,+1.705208E+00
-5.4600000000E-07,+1.690625E+00
-5.4400000000E-07,+1.680208E+00
-5.4200000000E-07,+1.670833E+00
-5.4000000000E-07,+1.660417E+00
-5.3800000000E-07,+1.647917E+00
-5.3600000000E-07,+1.638542E+00
-5.3400000000E-07,+1.628125E+00
-5.3200000000E-07,+1.619792E+00
-5.3000000000E-07,+1.617708E+00
-5.2800000000E-07,+1.612500E+00
-5.2600000000E-07,+1.604167E+00
-5.2400000000E-07,+1.597917E+00
-5.2200000000E-07,+1.596875E+00
-5.2000000000E-07,+1.588542E+00
-5.1800000000E-07,+1.591667E+00
-5.1600000000E-07,+1.577083E+00
-5.1400000000E-07,+1.580208E+00
-5.1200000000E-07,+1.636458E+00
-5.1000000000E-07,+1.547917E+00
-5.0800000000E-07,+1.621875E+00
-5.0600000000E-07,+1.554167E+00
-5.0400000000E-07,+1.606250E+00
-5.0200000000E-07,+1.575000E+00
-5.0000000000E-07,+1.594792E+00
-4.9800000000E-07,+1.588542E+00
-4.9600000000E-07,+1.586458E+00
-4.9400000000E-07,+1.593750E+00
-4.9200000000E-07,+1.595833E+00
-4.9000000000E-07,+1.597917E+00
-4.8800000000E-07,+1.587500E+00
-4.8600000000E-07,+1.597917E+00
-4.8400000000E-07,+1.584375E+00
-4.8200000000E-07,+1.590625E+00
-4.8000000000E-07,+1.595833E+00
-4.7800000000E-07,+1.595833E+00
-4.7600000000E-07,+1.589583E+00
-4.7400000000E-07,+1.588542E+00
-4.7200000000E-07,+1.587500E+00
-4.7000000000E-07,+1.583333E+00
-4.6800000000E-07,+1.585417E+00
-4.6600000000E-07,+1.573958E+00
-4.6400000000E-07,+1.567708E+00
-4.6200000000E-07,+1.564583E+00
-4.6000000000E-07,+1.561458E+00
-4.5800000000E-07,+1.552083E+00
-4.5600000000E-07,+1.546875E+00
-4.5400000000E-07,+1.535417E+00
-4.5200000000E-07,+1.528125E+00
-4.5000000000E-07,+1.519792E+00
-4.4800000000E-07,+1.510417E+00
-4.4600000000E-07,+1.498958E+00
-4.4400000000E-07,+1.487500E+00
-4.4200000000E-07,+1.480208E+00
-4.4000000000E-07,+1.464583E+00
-4.3800000000E-07,+1.453125E+00
-4.3600000000E-07,+1.440625E+00
-4.3400000000E-07,+1.427083E+00
-4.3200000000E-07,+1.412500E+00
-4.3000000000E-07,+1.395833E+00
-4.2800000000E-07,+1.380208E+00
-4.2600000000E-07,+1.365625E+00
-4.2400000000E-07,+1.350000E+00
-4.2200000000E-07,+1.334375E+00
-4.2000000000E-07,+1.317708E+00
-4.1800000000E-07,+1.296875E+00
-4.1600000000E-07,+1.281250E+00
-4.1400000000E-07,+1.261458E+00
-4.1200000000E-07,+1.245833E+00
-4.1000000000E-07,+1.222917E+00
-4.0800000000E-07,+1.207292E+00
-4.0600000000E-07,+1.188542E+00
-4.0400000000E-07,+1.166667E+00
-4.0200000000E-07,+1.144792E+00
-4.0000000000E-07,+1.129167E+00
-3.9800000000E-07,+1.068750E+00
-3.9600000000E-07,+1.113542E+00
-3.9400000000E-07,+1.036458E+00
-3.9200000000E-07,+1.021875E+00
-3.9000000000E-07,+1.047917E+00
-3.8800000000E-07,+9.625000E-01
-3.8600000000E-07,+9.822917E-01
-3.8400000000E-07,+9.312500E-01
-3.8200000000E-07,+9.281250E-01
-3.8000000000E-07,+8.958334E-01
-3.7800000000E-07,+8.760417E-01
-3.7600000000E-07,+8.479167E-01
-3.7400000000E-07,+8.302084E-01
-3.7200000000E-07,+8.072917E-01
-3.7000000000E-07,+7.843751E-01
-3.6800000000E-07,+7.656250E-01
-3.6600000000E-07,+7.375001E-01
-3.6400000000E-07,+7.093751E-01
-3.6200000000E-07,+6.947917E-01
-3.6000000000E-07,+6.760417E-01
-3.5800000000E-07,+6.541667E-01
-3.5600000000E-07,+6.343751E-01
-3.5400000000E-07,+6.197917E-01
-3.5200000000E-07,+6.031250E-01
-3.5000000000E-07,+5.916667E-01
-3.4800000000E-07,+5.812501E-01
-3.4600000000E-07,+5.656250E-01
-3.4400000000E-07,+5.562500E-01
-3.4200000000E-07,+5.479167E-01
-3.4000000000E-07,+5.500000E-01
-3.3800000000E-07,+5.520834E-01
-3.3600000000E-07,+5.489584E-01
-3.3400000000E-07,+5.479167E-01
-3.3200000000E-07,+5.541667E-01
-3.3000000000E-07,+5.614583E-01
-3.2800000000E-07,+5.697917E-01
-3.2600000000E-07,+5.781251E-01
-3.2400000000E-07,+5.895834E-01
-3.2200000000E-07,+6.020833E-01
-3.2000000000E-07,+6.145834E-01
-3.1800000000E-07,+6.322917E-01
-3.1600000000E-07,+6.489584E-01
-3.1400000000E-07,+6.645834E-01
-3.1200000000E-07,+6.864583E-01
-3.1000000000E-07,+7.020833E-01
-3.0800000000E-07,+7.229167E-01
-3.0600000000E-07,+7.437500E-01
-3.0400000000E-07,+7.635417E-01
-3.0200000000E-07,+7.875001E-01
-3.0000000000E-07,+8.135417E-01
-2.9800000000E-07,+8.375000E-01
-2.9600000000E-07,+8.614584E-01
-2.9400000000E-07,+8.895833E-01
-2.9200000000E-07,+9.145833E-01
-2.9000000000E-07,+9.437501E-01
-2.8800000000E-07,+9.729167E-01
-2.8600000000E-07,+9.989583E-01
-2.8400000000E-07,+1.027083E+00
-2.8200000000E-07,+1.059375E+00
-2.8000000000E-07,+1.088542E+00
-2.7800000000E-07,+1.119792E+00
-2.7600000000E-07,+1.154167E+00
-2.7400000000E-07,+1.180208E+00
-2.7200000000E-07,+1.217708E+00
-2.7000000000E-07,+1.248958E+00
-2.6800000000E-07,+1.289583E+00
-2.6600000000E-07,+1.303125E+00
-2.6400000000E-07,+1.422917E+00
-2.6200000000E-07,+1.418750E+00
-2.6000000000E-07,+1.356250E+00
-2.5800000000E-07,+1.492708E+00
-2.5600000000E-07,+1.535417E+00
-2.5400000000E-07,+1.558333E+00
-2.5200000000E-07,+1.585417E+00
-2.5000000000E-07,+1.625000E+00
-2.4800000000E-07,+1.661458E+00
-2.4600000000E-07,+1.689583E+00
-2.4400000000E-07,+1.742708E+00
-2.4200000000E-07,+1.784375E+00
-2.4000000000E-07,+1.810417E+00
-2.3800000000E-07,+1.839583E+00
-2.3600000000E-07,+1.883333E+00
-2.3400000000E-07,+1.916667E+00
-2.3200000000E-07,+1.954167E+00
-2.3000000000E-07,+1.989583E+00
-2.2800000000E-07,+2.025000E+00
-2.2600000000E-07,+2.070833E+00
-2.2400000000E-07,+2.092708E+00
-2.2200000000E-07,+2.132292E+00
-2.2000000000E-07,+2.183333E+00
-2.1800000000E-07,+2.213542E+00
-2.1600000000E-07,+2.240625E+00
-2.1400000000E-07,+2.278125E+00
-2.1200000000E-07,+2.311458E+00
-2.1000000000E-07,+2.342708E+00
-2.0800000000E-07,+2.375000E+00
-2.0600000000E-07,+2.406250E+00
-2.0400000000E-07,+2.442708E+00
-2.0200000000E-07,+2.473958E+00
-2.0000000000E-07,+2.507292E+00
-1.9800000000E-07,+2.540625E+00
-1.9600000000E-07,+2.566667E+00
-1.9400000000E-07,+2.597917E+00
-1.9200000000E-07,+2.630208E+00
-1.9000000000E-07,+2.658334E+00
-1.8800000000E-07,+2.686459E+00
-1.8600000000E-07,+2.713542E+00
-1.8400000000E-07,+2.738542E+00
-1.8200000000E-07,+2.762500E+00
-1.8000000000E-07,+2.789583E+00
-1.7800000000E-07,+2.812500E+00
-1.7600000000E-07,+2.833333E+00
-1.7400000000E-07,+2.852083E+00
-1.7200000000E-07,+2.871875E+00
-1.7000000000E-07,+2.887500E+00
-1.6800000000E-07,+2.904167E+00
-1.6600000000E-07,+2.921875E+00
-1.6400000000E-07,+2.934375E+00
-1.6200000000E-07,+2.944792E+00
-1.6000000000E-07,+2.947917E+00
-1.5800000000E-07,+2.943750E+00
-1.5600000000E-07,+2.956250E+00
-1.5400000000E-07,+2.952083E+00
-1.5200000000E-07,+2.944792E+00
-1.5000000000E-07,+2.939583E+00
-1.4800000000E-07,+2.901042E+00
-1.4600000000E-07,+2.888542E+00
-1.4400000000E-07,+3.004167E+00
-1.4200000000E-07,+2.820833E+00
-1.4000000000E-07,+2.844792E+00
-1.3800000000E-07,+2.858333E+00
-1.3600000000E-07,+2.806250E+00
-1.3400000000E-07,+2.819792E+00
-1.3200000000E-07,+2.758333E+00
-1.3000000000E-07,+2.741667E+00
-1.2800000000E-07,+2.712500E+00
-1.2600000000E-07,+2.680208E+00
-1.2400000000E-07,+2.677083E+00
-1.2200000000E-07,+2.614583E+00
-1.2000000000E-07,+2.613542E+00
-1.1800000000E-07,+2.554167E+00
-1.1600000000E-07,+2.556250E+00
-1.1400000000E-07,+2.491667E+00
-1.1200000000E-07,+2.492708E+00
-1.1000000000E-07,+2.441667E+00
-1.0800000000E-07,+2.416667E+00
-1.0600000000E-07,+2.378125E+00
-1.0400000000E-07,+2.352083E+00
-1.0200000000E-07,+2.331250E+00
-1.0000000000E-07,+2.294792E+00
-9.8000000000E-08,+2.273958E+00
-9.6000000000E-08,+2.229167E+00
-9.4000000000E-08,+2.208333E+00
-9.2000000000E-08,+2.178125E+00
-9.0000000000E-08,+2.154167E+00
-8.8000000000E-08,+2.130208E+00
-8.6000000000E-08,+2.097917E+00
-8.4000000000E-08,+2.075000E+00
-8.2000000000E-08,+2.052083E+00
-8.0000000000E-08,+2.033333E+00
-7.8000000000E-08,+2.003125E+00
-7.6000000000E-08,+1.982292E+00
-7.4000000000E-08,+1.957292E+00
-7.2000000000E-08,+1.936458E+00
-7.0000000000E-08,+1.913542E+00
-6.8000000000E-08,+1.893750E+00
-6.6000000000E-08,+1.870833E+00
-6.4000000000E-08,+1.851042E+00
-6.2000000000E-08,+1.830208E+00
-6.0000000000E-08,+1.812500E+00
-5.8000000000E-08,+1.796875E+00
-5.6000000000E-08,+1.775000E+00
-5.4000000000E-08,+1.757292E+00
-5.2000000000E-08,+1.744792E+00
-5.0000000000E-08,+1.727083E+00
-4.8000000000E-08,+1.710417E+00
-4.6000000000E-08,+1.695833E+00
-4.4000000000E-08,+1.684375E+00
-4.2000000000E-08,+1.671875E+00
-4.0000000000E-08,+1.660417E+00
-3.8000000000E-08,+1.652083E+00
-3.6000000000E-08,+1.640625E+00
-3.4000000000E-08,+1.631250E+00
-3.2000000000E-08,+1.622917E+00
-3.0000000000E-08,+1.616667E+00
-2.8000000000E-08,+1.613542E+00
-2.6000000000E-08,+1.607292E+00
-2.4000000000E-08,+1.596875E+00
-2.2000000000E-08,+1.595833E+00
-2.0000000000E-08,+1.587500E+00
-1.8000000000E-08,+1.587500E+00
-1.6000000000E-08,+1.589583E+00
-1.4000000000E-08,+1.559375E+00
-1.2000000000E-08,+1.623958E+00
-1.0000000000E-08,+1.593750E+00
-8.0000000000E-09,+1.566667E+00
-6.0000000000E-09,+1.605208E+00
-4.0000000000E-09,+1.557292E+00
-2.0000000000E-09,+1.609375E+00
+0.0000000000E+00,+1.571875E+00
+2.0000000000E-09,+1.598958E+00
+4.0000000000E-09,+1.585417E+00
+6.0000000000E-09,+1.591667E+00
+8.0000000000E-09,+1.594792E+00
+1.0000000000E-08,+1.592708E+00
+1.2000000000E-08,+1.595833E+00
+1.4000000000E-08,+1.588542E+00
+1.6000000000E-08,+1.596875E+00
+1.8000000000E-08,+1.584375E+00
+2.0000000000E-08,+1.603125E+00
+2.2000000000E-08,+1.593750E+00
+2.4000000000E-08,+1.594792E+00
+2.6000000000E-08,+1.581250E+00
+2.8000000000E-08,+1.588542E+00
+3.0000000000E-08,+1.589583E+00
+3.2000000000E-08,+1.586458E+00
+3.4000000000E-08,+1.579167E+00
+3.6000000000E-08,+1.575000E+00
+3.8000000000E-08,+1.569792E+00
+4.0000000000E-08,+1.563542E+00
+4.2000000000E-08,+1.559375E+00
+4.4000000000E-08,+1.551042E+00
+4.6000000000E-08,+1.545833E+00
+4.8000000000E-08,+1.534375E+00
+5.0000000000E-08,+1.528125E+00
+5.2000000000E-08,+1.518750E+00
+5.4000000000E-08,+1.506250E+00
+5.6000000000E-08,+1.497917E+00
+5.8000000000E-08,+1.483333E+00
+6.0000000000E-08,+1.472917E+00
+6.2000000000E-08,+1.464583E+00
+6.4000000000E-08,+1.453125E+00
+6.6000000000E-08,+1.437500E+00
+6.8000000000E-08,+1.420833E+00
+7.0000000000E-08,+1.407292E+00
+7.2000000000E-08,+1.390625E+00
+7.4000000000E-08,+1.377083E+00
+7.6000000000E-08,+1.363542E+00
+7.8000000000E-08,+1.347917E+00
+8.0000000000E-08,+1.327083E+00
+8.2000000000E-08,+1.312500E+00
+8.4000000000E-08,+1.295833E+00
+8.6000000000E-08,+1.277083E+00
+8.8000000000E-08,+1.253125E+00
+9.0000000000E-08,+1.236458E+00
+9.2000000000E-08,+1.217708E+00
+9.4000000000E-08,+1.204167E+00
+9.6000000000E-08,+1.181250E+00
+9.8000000000E-08,+1.160417E+00
+1.0000000000E-07,+1.140625E+00
+1.0200000000E-07,+1.116667E+00
+1.0400000000E-07,+1.071875E+00
+1.0600000000E-07,+1.115625E+00
+1.0800000000E-07,+1.003125E+00
+1.1000000000E-07,+1.059375E+00
+1.1200000000E-07,+1.005208E+00
+1.1400000000E-07,+9.708334E-01
+1.1600000000E-07,+9.645834E-01
+1.1800000000E-07,+9.281250E-01
+1.2000000000E-07,+9.218750E-01
+1.2200000000E-07,+8.802084E-01
+1.2400000000E-07,+8.718750E-01
+1.2600000000E-07,+8.354167E-01
+1.2800000000E-07,+8.187500E-01
+1.3000000000E-07,+8.000001E-01
+1.3200000000E-07,+7.802083E-01
+1.3400000000E-07,+7.583333E-01
+1.3600000000E-07,+7.218751E-01
+1.3800000000E-07,+7.104167E-01
+1.4000000000E-07,+6.833333E-01
+1.4200000000E-07,+6.708333E-01
+1.4400000000E-07,+6.406251E-01
+1.4600000000E-07,+6.354167E-01
+1.4800000000E-07,+6.083333E-01
+1.5000000000E-07,+5.989584E-01
+1.5200000000E-07,+5.895834E-01
+1.5400000000E-07,+5.770833E-01
+1.5600000000E-07,+5.593750E-01
+1.5800000000E-07,+5.583333E-01
+1.6000000000E-07,+5.572917E-01
+1.6200000000E-07,+5.468751E-01
+1.6400000000E-07,+5.427084E-01
+1.6600000000E-07,+5.489584E-01
+1.6800000000E-07,+5.625000E-01
+1.7000000000E-07,+5.572917E-01
+1.7200000000E-07,+5.635417E-01
+1.7400000000E-07,+5.791667E-01
+1.7600000000E-07,+5.906250E-01
+1.7800000000E-07,+5.916667E-01
+1.8000000000E-07,+6.052083E-01
+1.8200000000E-07,+6.270833E-01
+1.8400000000E-07,+6.447917E-01
+1.8600000000E-07,+6.541667E-01
+1.8800000000E-07,+6.770834E-01
+1.9000000000E-07,+6.968750E-01
+1.9200000000E-07,+7.135417E-01
+1.9400000000E-07,+7.302084E-01
+1.9600000000E-07,+7.531250E-01
+1.9800000000E-07,+7.791667E-01
+2.0000000000E-07,+8.000001E-01
+2.0200000000E-07,+8.239584E-01
+2.0400000000E-07,+8.500000E-01
+2.0600000000E-07,+8.760417E-01
+2.0800000000E-07,+8.989584E-01
+2.1000000000E-07,+9.281250E-01
+2.1200000000E-07,+9.572917E-01
+2.1400000000E-07,+9.854167E-01
+2.1600000000E-07,+1.010417E+00
+2.1800000000E-07,+1.041667E+00
+2.2000000000E-07,+1.071875E+00
+2.2200000000E-07,+1.100000E+00
+2.2400000000E-07,+1.137500E+00
+2.2600000000E-07,+1.171875E+00
+2.2800000000E-07,+1.200000E+00
+2.3000000000E-07,+1.236458E+00
