figures/Python/2MHz 48V 0A 0.25 DB1-1/SDS1204X_HD_CSV_C2_11.csv

Record Length,Analog:2000
Sample Interval,1.000000E-09
Vertical Units,V,
Vertical Scale,+5.000000E-01
Vertical Offset,+1.658333E+00
Horizontal Units,s
Horizontal Scale,+2.000000E-07
Model,SDS1204X HD
Serial Number,SDSEV82X900772
Software Version,6.9.13.1.1.6.7
Source,CH2
Second,Value
-1.0000000000E-06,-2.156250E+00
-9.9900000000E-07,-2.140625E+00
-9.9800000000E-07,-2.134375E+00
-9.9700000000E-07,-2.122917E+00
-9.9600000000E-07,-2.112500E+00
-9.9500000000E-07,-2.095833E+00
-9.9400000000E-07,-2.088542E+00
-9.9300000000E-07,-2.079167E+00
-9.9200000000E-07,-2.070833E+00
-9.9100000000E-07,-2.055208E+00
-9.9000000000E-07,-2.045834E+00
-9.8900000000E-07,-2.031250E+00
-9.8800000000E-07,-2.019792E+00
-9.8700000000E-07,-2.011458E+00
-9.8600000000E-07,-2.001042E+00
-9.8500000000E-07,-1.991667E+00
-9.8400000000E-07,-1.979167E+00
-9.8300000000E-07,-1.962500E+00
-9.8200000000E-07,-1.950000E+00
-9.8100000000E-07,-1.936458E+00
-9.8000000000E-07,-1.931250E+00
-9.7900000000E-07,-1.913542E+00
-9.7800000000E-07,-1.900000E+00
-9.7700000000E-07,-1.885417E+00
-9.7600000000E-07,-1.880208E+00
-9.7500000000E-07,-1.866667E+00
-9.7400000000E-07,-1.846875E+00
-9.7300000000E-07,-1.835417E+00
-9.7200000000E-07,-1.835417E+00
-9.7100000000E-07,-1.814583E+00
-9.7000000000E-07,-1.795833E+00
-9.6900000000E-07,-1.786458E+00
-9.6800000000E-07,-1.779167E+00
-9.6700000000E-07,-1.790625E+00
-9.6600000000E-07,-1.846875E+00
-9.6500000000E-07,-1.838542E+00
-9.6400000000E-07,-1.731250E+00
-9.6300000000E-07,-1.662500E+00
-9.6200000000E-07,-1.743750E+00
-9.6100000000E-07,-1.737500E+00
-9.6000000000E-07,-1.690625E+00
-9.5900000000E-07,-1.638542E+00
-9.5800000000E-07,-1.679167E+00
-9.5700000000E-07,-1.703125E+00
-9.5600000000E-07,-1.666667E+00
-9.5500000000E-07,-1.620833E+00
-9.5400000000E-07,-1.605208E+00
-9.5300000000E-07,-1.597917E+00
-9.5200000000E-07,-1.591667E+00
-9.5100000000E-07,-1.578125E+00
-9.5000000000E-07,-1.553125E+00
-9.4900000000E-07,-1.547917E+00
-9.4800000000E-07,-1.544792E+00
-9.4700000000E-07,-1.522917E+00
-9.4600000000E-07,-1.506250E+00
-9.4500000000E-07,-1.482292E+00
-9.4400000000E-07,-1.476042E+00
-9.4300000000E-07,-1.473958E+00
-9.4200000000E-07,-1.456250E+00
-9.4100000000E-07,-1.445833E+00
-9.4000000000E-07,-1.423958E+00
-9.3900000000E-07,-1.403125E+00
-9.3800000000E-07,-1.385417E+00
-9.3700000000E-07,-1.367708E+00
-9.3600000000E-07,-1.365625E+00
-9.3500000000E-07,-1.359375E+00
-9.3400000000E-07,-1.350000E+00
-9.3300000000E-07,-1.332292E+00
-9.3200000000E-07,-1.316667E+00
-9.3100000000E-07,-1.301042E+00
-9.3000000000E-07,-1.280208E+00
-9.2900000000E-07,-1.260417E+00
-9.2800000000E-07,-1.253125E+00
-9.2700000000E-07,-1.246875E+00
-9.2600000000E-07,-1.234375E+00
-9.2500000000E-07,-1.222917E+00
-9.2400000000E-07,-1.209375E+00
-9.2300000000E-07,-1.190625E+00
-9.2200000000E-07,-1.178125E+00
-9.2100000000E-07,-1.159375E+00
-9.2000000000E-07,-1.148958E+00
-9.1900000000E-07,-1.138542E+00
-9.1800000000E-07,-1.131250E+00
-9.1700000000E-07,-1.115625E+00
-9.1600000000E-07,-1.103125E+00
-9.1500000000E-07,-1.088542E+00
-9.1400000000E-07,-1.081250E+00
-9.1300000000E-07,-1.064583E+00
-9.1200000000E-07,-1.054167E+00
-9.1100000000E-07,-1.041667E+00
-9.1000000000E-07,-1.033333E+00
-9.0900000000E-07,-1.020833E+00
-9.0800000000E-07,-1.012500E+00
-9.0700000000E-07,-1.003125E+00
-9.0600000000E-07,-9.968750E-01
-9.0500000000E-07,-9.833333E-01
-9.0400000000E-07,-9.739584E-01
-9.0300000000E-07,-9.645834E-01
-9.0200000000E-07,-9.531251E-01
-9.0100000000E-07,-9.468751E-01
-9.0000000000E-07,-9.395834E-01
-8.9900000000E-07,-9.312500E-01
-8.9800000000E-07,-9.208333E-01
-8.9700000000E-07,-9.197917E-01
-8.9600000000E-07,-9.072917E-01
-8.9500000000E-07,-8.979167E-01
-8.9400000000E-07,-8.927084E-01
-8.9300000000E-07,-8.864584E-01
-8.9200000000E-07,-8.822917E-01
-8.9100000000E-07,-8.781251E-01
-8.9000000000E-07,-8.750001E-01
-8.8900000000E-07,-8.677084E-01
-8.8800000000E-07,-8.666667E-01
-8.8700000000E-07,-8.562500E-01
-8.8600000000E-07,-8.531250E-01
-8.8500000000E-07,-8.489584E-01
-8.8400000000E-07,-8.468750E-01
-8.8300000000E-07,-8.437500E-01
-8.8200000000E-07,-8.437500E-01
-8.8100000000E-07,-8.406250E-01
-8.8000000000E-07,-8.395833E-01
-8.7900000000E-07,-8.343750E-01
-8.7800000000E-07,-8.322917E-01
-8.7700000000E-07,-8.322917E-01
-8.7600000000E-07,-8.312500E-01
-8.7500000000E-07,-8.354167E-01
-8.7400000000E-07,-8.375000E-01
-8.7300000000E-07,-8.354167E-01
-8.7200000000E-07,-8.385417E-01
-8.7100000000E-07,-8.416667E-01
-8.7000000000E-07,-8.416667E-01
-8.6900000000E-07,-8.458334E-01
-8.6800000000E-07,-8.458334E-01
-8.6700000000E-07,-8.468750E-01
-8.6600000000E-07,-8.531250E-01
-8.6500000000E-07,-8.552083E-01
-8.6400000000E-07,-8.635417E-01
-8.6300000000E-07,-8.677084E-01
-8.6200000000E-07,-8.729167E-01
-8.6100000000E-07,-8.729167E-01
-8.6000000000E-07,-8.833334E-01
-8.5900000000E-07,-8.843750E-01
-8.5800000000E-07,-8.916667E-01
-8.5700000000E-07,-9.020834E-01
-8.5600000000E-07,-9.083334E-01
-8.5500000000E-07,-9.135417E-01
-8.5400000000E-07,-9.166667E-01
-8.5300000000E-07,-9.187500E-01
-8.5200000000E-07,-9.354168E-01
-8.5100000000E-07,-9.447917E-01
-8.5000000000E-07,-9.510417E-01
-8.4900000000E-07,-9.562501E-01
-8.4800000000E-07,-9.687501E-01
-8.4700000000E-07,-9.708334E-01
-8.4600000000E-07,-9.760417E-01
-8.4500000000E-07,-9.833333E-01
-8.4400000000E-07,-9.885417E-01
-8.4300000000E-07,-9.979167E-01
-8.4200000000E-07,-1.023958E+00
-8.4100000000E-07,-1.028125E+00
-8.4000000000E-07,-1.046875E+00
-8.3900000000E-07,-1.096875E+00
-8.3800000000E-07,-1.056250E+00
-8.3700000000E-07,-9.729167E-01
-8.3600000000E-07,-1.047917E+00
-8.3500000000E-07,-1.130208E+00
-8.3400000000E-07,-1.090625E+00
-8.3300000000E-07,-1.055208E+00
-8.3200000000E-07,-1.089583E+00
-8.3100000000E-07,-1.095833E+00
-8.3000000000E-07,-1.107292E+00
-8.2900000000E-07,-1.156250E+00
-8.2800000000E-07,-1.166667E+00
-8.2700000000E-07,-1.139583E+00
-8.2600000000E-07,-1.153125E+00
-8.2500000000E-07,-1.185417E+00
-8.2400000000E-07,-1.173958E+00
-8.2300000000E-07,-1.158333E+00
-8.2200000000E-07,-1.183333E+00
-8.2100000000E-07,-1.212500E+00
-8.2000000000E-07,-1.212500E+00
-8.1900000000E-07,-1.211458E+00
-8.1800000000E-07,-1.223958E+00
-8.1700000000E-07,-1.233333E+00
-8.1600000000E-07,-1.229167E+00
-8.1500000000E-07,-1.243750E+00
-8.1400000000E-07,-1.263542E+00
-8.1300000000E-07,-1.273958E+00
-8.1200000000E-07,-1.276042E+00
-8.1100000000E-07,-1.282292E+00
-8.1000000000E-07,-1.293750E+00
-8.0900000000E-07,-1.298958E+00
-8.0800000000E-07,-1.306250E+00
-8.0700000000E-07,-1.313542E+00
-8.0600000000E-07,-1.323958E+00
-8.0500000000E-07,-1.327083E+00
-8.0400000000E-07,-1.335417E+00
-8.0300000000E-07,-1.347917E+00
-8.0200000000E-07,-1.354167E+00
-8.0100000000E-07,-1.354167E+00
-8.0000000000E-07,-1.366667E+00
-7.9900000000E-07,-1.381250E+00
-7.9800000000E-07,-1.383333E+00
-7.9700000000E-07,-1.384375E+00
-7.9600000000E-07,-1.392708E+00
-7.9500000000E-07,-1.408333E+00
-7.9400000000E-07,-1.417708E+00
-7.9300000000E-07,-1.422917E+00
-7.9200000000E-07,-1.433333E+00
-7.9100000000E-07,-1.442708E+00
-7.9000000000E-07,-1.446875E+00
-7.8900000000E-07,-1.453125E+00
-7.8800000000E-07,-1.459375E+00
-7.8700000000E-07,-1.469792E+00
-7.8600000000E-07,-1.477083E+00
-7.8500000000E-07,-1.483333E+00
-7.8400000000E-07,-1.489583E+00
-7.8300000000E-07,-1.497917E+00
-7.8200000000E-07,-1.505208E+00
-7.8100000000E-07,-1.510417E+00
-7.8000000000E-07,-1.515625E+00
-7.7900000000E-07,-1.520833E+00
-7.7800000000E-07,-1.528125E+00
-7.7700000000E-07,-1.537500E+00
-7.7600000000E-07,-1.543750E+00
-7.7500000000E-07,-1.550000E+00
-7.7400000000E-07,-1.556250E+00
-7.7300000000E-07,-1.560417E+00
-7.7200000000E-07,-1.564583E+00
-7.7100000000E-07,-1.566667E+00
-7.7000000000E-07,-1.572917E+00
-7.6900000000E-07,-1.578125E+00
-7.6800000000E-07,-1.583333E+00
-7.6700000000E-07,-1.588542E+00
-7.6600000000E-07,-1.595833E+00
-7.6500000000E-07,-1.596875E+00
-7.6400000000E-07,-1.596875E+00
-7.6300000000E-07,-1.602083E+00
-7.6200000000E-07,-1.607292E+00
-7.6100000000E-07,-1.614583E+00
-7.6000000000E-07,-1.615625E+00
-7.5900000000E-07,-1.617708E+00
-7.5800000000E-07,-1.618750E+00
-7.5700000000E-07,-1.622917E+00
-7.5600000000E-07,-1.625000E+00
-7.5500000000E-07,-1.630208E+00
-7.5400000000E-07,-1.628125E+00
-7.5300000000E-07,-1.632292E+00
-7.5200000000E-07,-1.632292E+00
-7.5100000000E-07,-1.634375E+00
-7.5000000000E-07,-1.636458E+00
-7.4900000000E-07,-1.640625E+00
-7.4800000000E-07,-1.642708E+00
-7.4700000000E-07,-1.642708E+00
-7.4600000000E-07,-1.644792E+00
-7.4500000000E-07,-1.645833E+00
-7.4400000000E-07,-1.646875E+00
-7.4300000000E-07,-1.646875E+00
-7.4200000000E-07,-1.650000E+00
-7.4100000000E-07,-1.651042E+00
-7.4000000000E-07,-1.652083E+00
-7.3900000000E-07,-1.654167E+00
-7.3800000000E-07,-1.652083E+00
-7.3700000000E-07,-1.653125E+00
-7.3600000000E-07,-1.647917E+00
-7.3500000000E-07,-1.654167E+00
-7.3400000000E-07,-1.656250E+00
-7.3300000000E-07,-1.655208E+00
-7.3200000000E-07,-1.654167E+00
-7.3100000000E-07,-1.657292E+00
-7.3000000000E-07,-1.656250E+00
-7.2900000000E-07,-1.660417E+00
-7.2800000000E-07,-1.656250E+00
-7.2700000000E-07,-1.653125E+00
-7.2600000000E-07,-1.655208E+00
-7.2500000000E-07,-1.664583E+00
-7.2400000000E-07,-1.659375E+00
-7.2300000000E-07,-1.656250E+00
-7.2200000000E-07,-1.663542E+00
-7.2100000000E-07,-1.662500E+00
-7.2000000000E-07,-1.652083E+00
-7.1900000000E-07,-1.658333E+00
-7.1800000000E-07,-1.669792E+00
-7.1700000000E-07,-1.704167E+00
-7.1600000000E-07,-1.716667E+00
-7.1500000000E-07,-1.608333E+00
-7.1400000000E-07,-1.640625E+00
-7.1300000000E-07,-1.646875E+00
-7.1200000000E-07,-1.646875E+00
-7.1100000000E-07,-1.678125E+00
-7.1000000000E-07,-1.685417E+00
-7.0900000000E-07,-1.651042E+00
-7.0800000000E-07,-1.662500E+00
-7.0700000000E-07,-1.695833E+00
-7.0600000000E-07,-1.663542E+00
-7.0500000000E-07,-1.658333E+00
-7.0400000000E-07,-1.657292E+00
-7.0300000000E-07,-1.657292E+00
-7.0200000000E-07,-1.653125E+00
-7.0100000000E-07,-1.645833E+00
-7.0000000000E-07,-1.652083E+00
-6.9900000000E-07,-1.653125E+00
-6.9800000000E-07,-1.666667E+00
-6.9700000000E-07,-1.668750E+00
-6.9600000000E-07,-1.656250E+00
-6.9500000000E-07,-1.656250E+00
-6.9400000000E-07,-1.654167E+00
-6.9300000000E-07,-1.658333E+00
-6.9200000000E-07,-1.658333E+00
-6.9100000000E-07,-1.659375E+00
-6.9000000000E-07,-1.661458E+00
-6.8900000000E-07,-1.659375E+00
-6.8800000000E-07,-1.658333E+00
-6.8700000000E-07,-1.659375E+00
-6.8600000000E-07,-1.657292E+00
-6.8500000000E-07,-1.658333E+00
-6.8400000000E-07,-1.657292E+00
-6.8300000000E-07,-1.655208E+00
-6.8200000000E-07,-1.654167E+00
-6.8100000000E-07,-1.656250E+00
-6.8000000000E-07,-1.662500E+00
-6.7900000000E-07,-1.659375E+00
-6.7800000000E-07,-1.657292E+00
-6.7700000000E-07,-1.660417E+00
-6.7600000000E-07,-1.665625E+00
-6.7500000000E-07,-1.664583E+00
-6.7400000000E-07,-1.665625E+00
-6.7300000000E-07,-1.666667E+00
-6.7200000000E-07,-1.663542E+00
-6.7100000000E-07,-1.662500E+00
-6.7000000000E-07,-1.661458E+00
-6.6900000000E-07,-1.662500E+00
-6.6800000000E-07,-1.666667E+00
-6.6700000000E-07,-1.670833E+00
-6.6600000000E-07,-1.669792E+00
-6.6500000000E-07,-1.671875E+00
-6.6400000000E-07,-1.673958E+00
-6.6300000000E-07,-1.678125E+00
-6.6200000000E-07,-1.678125E+00
-6.6100000000E-07,-1.683333E+00
-6.6000000000E-07,-1.685417E+00
-6.5900000000E-07,-1.687500E+00
-6.5800000000E-07,-1.686458E+00
-6.5700000000E-07,-1.690625E+00
-6.5600000000E-07,-1.692708E+00
-6.5500000000E-07,-1.696875E+00
-6.5400000000E-07,-1.701042E+00
-6.5300000000E-07,-1.704167E+00
-6.5200000000E-07,-1.705208E+00
-6.5100000000E-07,-1.708333E+00
-6.5000000000E-07,-1.710417E+00
-6.4900000000E-07,-1.714583E+00
-6.4800000000E-07,-1.720833E+00
-6.4700000000E-07,-1.722917E+00
-6.4600000000E-07,-1.732292E+00
-6.4500000000E-07,-1.735417E+00
-6.4400000000E-07,-1.739583E+00
-6.4300000000E-07,-1.746875E+00
-6.4200000000E-07,-1.751042E+00
-6.4100000000E-07,-1.751042E+00
-6.4000000000E-07,-1.758333E+00
-6.3900000000E-07,-1.759375E+00
-6.3800000000E-07,-1.758333E+00
-6.3700000000E-07,-1.768750E+00
-6.3600000000E-07,-1.779167E+00
-6.3500000000E-07,-1.783333E+00
-6.3400000000E-07,-1.783333E+00
-6.3300000000E-07,-1.791667E+00
-6.3200000000E-07,-1.797917E+00
-6.3100000000E-07,-1.801042E+00
-6.3000000000E-07,-1.805208E+00
-6.2900000000E-07,-1.810417E+00
-6.2800000000E-07,-1.814583E+00
-6.2700000000E-07,-1.821875E+00
-6.2600000000E-07,-1.826042E+00
-6.2500000000E-07,-1.826042E+00
-6.2400000000E-07,-1.831250E+00
-6.2300000000E-07,-1.835417E+00
-6.2200000000E-07,-1.844792E+00
-6.2100000000E-07,-1.848958E+00
-6.2000000000E-07,-1.858333E+00
-6.1900000000E-07,-1.858333E+00
-6.1800000000E-07,-1.866667E+00
-6.1700000000E-07,-1.873958E+00
-6.1600000000E-07,-1.878125E+00
-6.1500000000E-07,-1.884375E+00
-6.1400000000E-07,-1.888542E+00
-6.1300000000E-07,-1.893750E+00
-6.1200000000E-07,-1.901042E+00
-6.1100000000E-07,-1.908333E+00
-6.1000000000E-07,-1.915625E+00
-6.0900000000E-07,-1.917708E+00
-6.0800000000E-07,-1.929167E+00
-6.0700000000E-07,-1.931250E+00
-6.0600000000E-07,-1.939583E+00
-6.0500000000E-07,-1.943750E+00
-6.0400000000E-07,-1.955208E+00
-6.0300000000E-07,-1.958333E+00
-6.0200000000E-07,-1.960417E+00
-6.0100000000E-07,-1.971875E+00
-6.0000000000E-07,-1.985417E+00
-5.9900000000E-07,-1.987500E+00
-5.9800000000E-07,-1.993750E+00
-5.9700000000E-07,-1.996875E+00
-5.9600000000E-07,-2.001042E+00
-5.9500000000E-07,-2.011458E+00
-5.9400000000E-07,-2.017708E+00
-5.9300000000E-07,-2.014583E+00
-5.9200000000E-07,-2.013542E+00
-5.9100000000E-07,-2.001042E+00
-5.9000000000E-07,-2.000000E+00
-5.8900000000E-07,-2.031250E+00
-5.8800000000E-07,-2.071875E+00
-5.8700000000E-07,-2.096875E+00
-5.8600000000E-07,-2.065625E+00
-5.8500000000E-07,-1.984375E+00
-5.8400000000E-07,-1.964583E+00
-5.8300000000E-07,-2.108333E+00
-5.8200000000E-07,-2.172917E+00
-5.8100000000E-07,-2.028125E+00
-5.8000000000E-07,-1.981250E+00
-5.7900000000E-07,-2.138542E+00
-5.7800000000E-07,-2.197917E+00
-5.7700000000E-07,-2.088542E+00
-5.7600000000E-07,-2.068750E+00
-5.7500000000E-07,-2.148958E+00
-5.7400000000E-07,-2.145833E+00
-5.7300000000E-07,-2.097917E+00
-5.7200000000E-07,-2.141667E+00
-5.7100000000E-07,-2.173958E+00
-5.7000000000E-07,-2.140625E+00
-5.6900000000E-07,-2.141667E+00
-5.6800000000E-07,-2.195833E+00
-5.6700000000E-07,-2.186458E+00
-5.6600000000E-07,-2.147917E+00
-5.6500000000E-07,-2.167708E+00
-5.6400000000E-07,-2.211458E+00
-5.6300000000E-07,-2.192708E+00
-5.6200000000E-07,-2.180208E+00
-5.6100000000E-07,-2.215625E+00
-5.6000000000E-07,-2.230208E+00
-5.5900000000E-07,-2.207292E+00
-5.5800000000E-07,-2.209375E+00
-5.5700000000E-07,-2.245833E+00
-5.5600000000E-07,-2.250000E+00
-5.5500000000E-07,-2.231250E+00
-5.5400000000E-07,-2.244792E+00
-5.5300000000E-07,-2.275000E+00
-5.5200000000E-07,-2.265625E+00
-5.5100000000E-07,-2.248958E+00
-5.5000000000E-07,-2.267708E+00
-5.4900000000E-07,-2.278125E+00
-5.4800000000E-07,-2.276042E+00
-5.4700000000E-07,-2.283333E+00
-5.4600000000E-07,-2.301042E+00
-5.4500000000E-07,-2.305208E+00
-5.4400000000E-07,-2.303125E+00
-5.4300000000E-07,-2.311458E+00
-5.4200000000E-07,-2.317708E+00
-5.4100000000E-07,-2.309375E+00
-5.4000000000E-07,-2.313542E+00
-5.3900000000E-07,-2.325000E+00
-5.3800000000E-07,-2.328125E+00
-5.3700000000E-07,-2.322917E+00
-5.3600000000E-07,-2.331250E+00
-5.3500000000E-07,-2.339583E+00
-5.3400000000E-07,-2.335417E+00
-5.3300000000E-07,-2.328125E+00
-5.3200000000E-07,-2.335417E+00
-5.3100000000E-07,-2.338542E+00
-5.3000000000E-07,-2.332292E+00
-5.2900000000E-07,-2.330208E+00
-5.2800000000E-07,-2.340625E+00
-5.2700000000E-07,-2.338542E+00
-5.2600000000E-07,-2.333333E+00
-5.2500000000E-07,-2.329167E+00
-5.2400000000E-07,-2.334375E+00
-5.2300000000E-07,-2.322917E+00
-5.2200000000E-07,-2.317708E+00
-5.2100000000E-07,-2.312500E+00
-5.2000000000E-07,-2.314583E+00
-5.1900000000E-07,-2.305208E+00
-5.1800000000E-07,-2.303125E+00
-5.1700000000E-07,-2.296875E+00
-5.1600000000E-07,-2.293750E+00
-5.1500000000E-07,-2.285417E+00
-5.1400000000E-07,-2.283333E+00
-5.1300000000E-07,-2.276042E+00
-5.1200000000E-07,-2.268750E+00
-5.1100000000E-07,-2.259375E+00
-5.1000000000E-07,-2.256250E+00
-5.0900000000E-07,-2.245833E+00
-5.0800000000E-07,-2.239583E+00
-5.0700000000E-07,-2.229167E+00
-5.0600000000E-07,-2.228125E+00
-5.0500000000E-07,-2.213542E+00
-5.0400000000E-07,-2.204167E+00
-5.0300000000E-07,-2.193750E+00
-5.0200000000E-07,-2.187500E+00
-5.0100000000E-07,-2.180208E+00
-5.0000000000E-07,-2.172917E+00
-4.9900000000E-07,-2.159375E+00
-4.9800000000E-07,-2.151042E+00
-4.9700000000E-07,-2.140625E+00
-4.9600000000E-07,-2.134375E+00
-4.9500000000E-07,-2.119792E+00
-4.9400000000E-07,-2.108333E+00
-4.9300000000E-07,-2.098958E+00
-4.9200000000E-07,-2.088542E+00
-4.9100000000E-07,-2.078125E+00
-4.9000000000E-07,-2.067708E+00
-4.8900000000E-07,-2.050000E+00
-4.8800000000E-07,-2.041667E+00
-4.8700000000E-07,-2.033333E+00
-4.8600000000E-07,-2.023958E+00
-4.8500000000E-07,-2.008333E+00
-4.8400000000E-07,-1.997917E+00
-4.8300000000E-07,-1.986458E+00
-4.8200000000E-07,-1.976042E+00
-4.8100000000E-07,-1.961458E+00
-4.8000000000E-07,-1.947917E+00
-4.7900000000E-07,-1.932292E+00
-4.7800000000E-07,-1.927083E+00
-4.7700000000E-07,-1.909375E+00
-4.7600000000E-07,-1.894792E+00
-4.7500000000E-07,-1.886458E+00
-4.7400000000E-07,-1.878125E+00
-4.7300000000E-07,-1.857292E+00
-4.7200000000E-07,-1.842708E+00
-4.7100000000E-07,-1.838542E+00
-4.7000000000E-07,-1.826042E+00
-4.6900000000E-07,-1.804167E+00
-4.6800000000E-07,-1.791667E+00
-4.6700000000E-07,-1.787500E+00
-4.6600000000E-07,-1.783333E+00
-4.6500000000E-07,-1.817708E+00
-4.6400000000E-07,-1.856250E+00
-4.6300000000E-07,-1.804167E+00
-4.6200000000E-07,-1.680208E+00
-4.6100000000E-07,-1.701042E+00
-4.6000000000E-07,-1.758333E+00
-4.5900000000E-07,-1.723958E+00
-4.5800000000E-07,-1.664583E+00
-4.5700000000E-07,-1.650000E+00
-4.5600000000E-07,-1.701042E+00
-4.5500000000E-07,-1.689583E+00
-4.5400000000E-07,-1.650000E+00
-4.5300000000E-07,-1.609375E+00
-4.5200000000E-07,-1.602083E+00
-4.5100000000E-07,-1.594792E+00
-4.5000000000E-07,-1.590625E+00
-4.4900000000E-07,-1.570833E+00
-4.4800000000E-07,-1.547917E+00
-4.4700000000E-07,-1.554167E+00
-4.4600000000E-07,-1.540625E+00
-4.4500000000E-07,-1.518750E+00
-4.4400000000E-07,-1.498958E+00
-4.4300000000E-07,-1.477083E+00
-4.4200000000E-07,-1.477083E+00
-4.4100000000E-07,-1.467708E+00
-4.4000000000E-07,-1.456250E+00
-4.3900000000E-07,-1.439583E+00
-4.3800000000E-07,-1.420833E+00
-4.3700000000E-07,-1.397917E+00
-4.3600000000E-07,-1.379167E+00
-4.3500000000E-07,-1.366667E+00
-4.3400000000E-07,-1.368750E+00
-4.3300000000E-07,-1.355208E+00
-4.3200000000E-07,-1.341667E+00
-4.3100000000E-07,-1.326042E+00
-4.3000000000E-07,-1.310417E+00
-4.2900000000E-07,-1.292708E+00
-4.2800000000E-07,-1.275000E+00
-4.2700000000E-07,-1.257292E+00
-4.2600000000E-07,-1.251042E+00
-4.2500000000E-07,-1.243750E+00
-4.2400000000E-07,-1.228125E+00
-4.2300000000E-07,-1.211458E+00
-4.2200000000E-07,-1.205208E+00
-4.2100000000E-07,-1.188542E+00
-4.2000000000E-07,-1.177083E+00
-4.1900000000E-07,-1.159375E+00
-4.1800000000E-07,-1.148958E+00
-4.1700000000E-07,-1.134375E+00
-4.1600000000E-07,-1.126042E+00
-4.1500000000E-07,-1.109375E+00
-4.1400000000E-07,-1.101042E+00
-4.1300000000E-07,-1.086458E+00
-4.1200000000E-07,-1.075000E+00
-4.1100000000E-07,-1.060417E+00
-4.1000000000E-07,-1.050000E+00
-4.0900000000E-07,-1.036458E+00
-4.0800000000E-07,-1.026042E+00
-4.0700000000E-07,-1.016667E+00
-4.0600000000E-07,-1.007292E+00
-4.0500000000E-07,-1.000000E+00
-4.0400000000E-07,-9.937500E-01
-4.0300000000E-07,-9.791667E-01
-4.0200000000E-07,-9.708334E-01
-4.0100000000E-07,-9.614584E-01
-4.0000000000E-07,-9.541667E-01
-3.9900000000E-07,-9.447917E-01
-3.9800000000E-07,-9.375001E-01
-3.9700000000E-07,-9.291667E-01
-3.9600000000E-07,-9.218750E-01
-3.9500000000E-07,-9.072917E-01
-3.9400000000E-07,-9.000000E-01
-3.9300000000E-07,-8.937501E-01
-3.9200000000E-07,-8.875000E-01
-3.9100000000E-07,-8.822917E-01
-3.9000000000E-07,-8.770834E-01
-3.8900000000E-07,-8.718750E-01
-3.8800000000E-07,-8.718750E-01
-3.8700000000E-07,-8.656251E-01
-3.8600000000E-07,-8.625001E-01
-3.8500000000E-07,-8.552083E-01
